<mxfile host="app.diagrams.net" modified="2022-07-20T09:03:48.313Z" agent="5.0 (Windows)" etag="fb2-MLx81-TT6xyvZYKJ" compressed="false" version="20.1.2" type="gitlab" pages="2">
  <diagram id="PqE9VzYEb8_aq8e-v4Z8" name="Activities">
    <mxGraphModel dx="958" dy="520" grid="1" gridSize="10" guides="1" tooltips="1" connect="1" arrows="1" fold="1" page="1" pageScale="1" pageWidth="827" pageHeight="1169" math="0" shadow="0">
      <root>
        <mxCell id="0" />
        <mxCell id="1" parent="0" />
        <mxCell id="AhWumF3XQHIKjwlk1vKg-1" value="" style="endArrow=block;html=1;fontColor=#000099;endFill=0;endSize=8;arcSize=0;elbow=vertical;noEdgeStyle=1;orthogonal=1;strokeColor=#000000;curved=1;fontStyle=0;startArrow=none;startFill=0;" parent="1" source="AhWumF3XQHIKjwlk1vKg-2" target="AhWumF3XQHIKjwlk1vKg-12" edge="1">
          <mxGeometry width="50" height="50" relative="1" as="geometry">
            <mxPoint x="-1855" y="-382.95000000000005" as="sourcePoint" />
            <mxPoint x="-1950" y="-467.95000000000005" as="targetPoint" />
          </mxGeometry>
        </mxCell>
        <mxCell id="AhWumF3XQHIKjwlk1vKg-2" value="cd:Polish" style="rounded=0;whiteSpace=wrap;html=1;snapToPoint=1;points=[[0.1,0],[0.2,0],[0.3,0],[0.4,0],[0.5,0],[0.6,0],[0.7,0],[0.8,0],[0.9,0],[0,0.1],[0,0.3],[0,0.5],[0,0.7],[0,0.9],[0.1,1],[0.2,1],[0.3,1],[0.4,1],[0.5,1],[0.6,1],[0.7,1],[0.8,1],[0.9,1],[1,0.1],[1,0.3],[1,0.5],[1,0.7],[1,0.9]];fontStyle=0;resizeWidth=1;" parent="1" vertex="1">
          <mxGeometry x="820" y="980" width="240" height="30" as="geometry" />
        </mxCell>
        <mxCell id="AhWumF3XQHIKjwlk1vKg-3" value="" style="endArrow=block;html=1;fontColor=#000099;endFill=0;endSize=8;arcSize=0;elbow=vertical;noEdgeStyle=1;orthogonal=1;strokeColor=#000000;curved=1;fontStyle=0;startArrow=none;startFill=0;" parent="1" source="AhWumF3XQHIKjwlk1vKg-4" target="AhWumF3XQHIKjwlk1vKg-12" edge="1">
          <mxGeometry width="50" height="50" relative="1" as="geometry">
            <mxPoint x="-1845" y="-372.95000000000005" as="sourcePoint" />
            <mxPoint x="-1950" y="-477.95000000000005" as="targetPoint" />
          </mxGeometry>
        </mxCell>
        <mxCell id="AhWumF3XQHIKjwlk1vKg-4" value="cd:Grind" style="rounded=0;whiteSpace=wrap;html=1;snapToPoint=1;points=[[0.1,0],[0.2,0],[0.3,0],[0.4,0],[0.5,0],[0.6,0],[0.7,0],[0.8,0],[0.9,0],[0,0.1],[0,0.3],[0,0.5],[0,0.7],[0,0.9],[0.1,1],[0.2,1],[0.3,1],[0.4,1],[0.5,1],[0.6,1],[0.7,1],[0.8,1],[0.9,1],[1,0.1],[1,0.3],[1,0.5],[1,0.7],[1,0.9]];fontStyle=0;resizeWidth=1;" parent="1" vertex="1">
          <mxGeometry x="820" y="910" width="240" height="30" as="geometry" />
        </mxCell>
        <mxCell id="AhWumF3XQHIKjwlk1vKg-5" value="" style="endArrow=block;html=1;fontColor=#000099;endFill=0;endSize=8;arcSize=0;elbow=vertical;noEdgeStyle=1;orthogonal=1;strokeColor=#000000;curved=1;fontStyle=0;startArrow=none;startFill=0;" parent="1" source="AhWumF3XQHIKjwlk1vKg-6" target="AhWumF3XQHIKjwlk1vKg-12" edge="1">
          <mxGeometry width="50" height="50" relative="1" as="geometry">
            <mxPoint x="-1835" y="-362.95000000000005" as="sourcePoint" />
            <mxPoint x="-2380" y="-461.37" as="targetPoint" />
          </mxGeometry>
        </mxCell>
        <mxCell id="AhWumF3XQHIKjwlk1vKg-6" value="cd:Cut" style="rounded=0;whiteSpace=wrap;html=1;snapToPoint=1;points=[[0.1,0],[0.2,0],[0.3,0],[0.4,0],[0.5,0],[0.6,0],[0.7,0],[0.8,0],[0.9,0],[0,0.1],[0,0.3],[0,0.5],[0,0.7],[0,0.9],[0.1,1],[0.2,1],[0.3,1],[0.4,1],[0.5,1],[0.6,1],[0.7,1],[0.8,1],[0.9,1],[1,0.1],[1,0.3],[1,0.5],[1,0.7],[1,0.9]];fontStyle=0;resizeWidth=1;" parent="1" vertex="1">
          <mxGeometry x="820" y="840" width="240" height="30" as="geometry" />
        </mxCell>
        <mxCell id="AhWumF3XQHIKjwlk1vKg-7" value="" style="endArrow=block;html=1;fontColor=#000099;endFill=0;endSize=8;arcSize=0;elbow=vertical;noEdgeStyle=1;orthogonal=1;strokeColor=#000000;curved=1;fontStyle=0;startArrow=none;startFill=0;" parent="1" source="AhWumF3XQHIKjwlk1vKg-8" target="AhWumF3XQHIKjwlk1vKg-15" edge="1">
          <mxGeometry width="50" height="50" relative="1" as="geometry">
            <mxPoint x="-1920" y="-591.95" as="sourcePoint" />
            <mxPoint x="-2005" y="-756.95" as="targetPoint" />
          </mxGeometry>
        </mxCell>
        <mxCell id="AhWumF3XQHIKjwlk1vKg-8" value="cd:PrimaryShaping" style="rounded=0;whiteSpace=wrap;html=1;snapToPoint=1;points=[[0.1,0],[0.2,0],[0.3,0],[0.4,0],[0.5,0],[0.6,0],[0.7,0],[0.8,0],[0.9,0],[0,0.1],[0,0.3],[0,0.5],[0,0.7],[0,0.9],[0.1,1],[0.2,1],[0.3,1],[0.4,1],[0.5,1],[0.6,1],[0.7,1],[0.8,1],[0.9,1],[1,0.1],[1,0.3],[1,0.5],[1,0.7],[1,0.9]];fontStyle=0;resizeWidth=1;" parent="1" vertex="1">
          <mxGeometry x="550" y="1225" width="240" height="30" as="geometry" />
        </mxCell>
        <mxCell id="AhWumF3XQHIKjwlk1vKg-9" value="" style="endArrow=block;html=1;fontColor=#000099;endFill=0;endSize=8;arcSize=0;elbow=vertical;noEdgeStyle=1;orthogonal=1;strokeColor=#000000;curved=1;fontStyle=0;startArrow=none;startFill=0;" parent="1" source="AhWumF3XQHIKjwlk1vKg-10" target="AhWumF3XQHIKjwlk1vKg-15" edge="1">
          <mxGeometry width="50" height="50" relative="1" as="geometry">
            <mxPoint x="-2440" y="-551.37" as="sourcePoint" />
            <mxPoint x="-1995" y="-756.95" as="targetPoint" />
          </mxGeometry>
        </mxCell>
        <mxCell id="AhWumF3XQHIKjwlk1vKg-10" value="cd:Reshape" style="rounded=0;whiteSpace=wrap;html=1;snapToPoint=1;points=[[0.1,0],[0.2,0],[0.3,0],[0.4,0],[0.5,0],[0.6,0],[0.7,0],[0.8,0],[0.9,0],[0,0.1],[0,0.3],[0,0.5],[0,0.7],[0,0.9],[0.1,1],[0.2,1],[0.3,1],[0.4,1],[0.5,1],[0.6,1],[0.7,1],[0.8,1],[0.9,1],[1,0.1],[1,0.3],[1,0.5],[1,0.7],[1,0.9]];fontStyle=0;resizeWidth=1;" parent="1" vertex="1">
          <mxGeometry x="550" y="1050" width="240" height="30" as="geometry" />
        </mxCell>
        <mxCell id="AhWumF3XQHIKjwlk1vKg-11" value="" style="endArrow=block;html=1;fontColor=#000099;endFill=0;endSize=8;arcSize=0;elbow=vertical;noEdgeStyle=1;orthogonal=1;strokeColor=#000000;curved=1;fontStyle=0;startArrow=none;startFill=0;" parent="1" source="AhWumF3XQHIKjwlk1vKg-12" target="AhWumF3XQHIKjwlk1vKg-15" edge="1">
          <mxGeometry width="50" height="50" relative="1" as="geometry">
            <mxPoint x="-1684.73" y="-581.95" as="sourcePoint" />
            <mxPoint x="-1985" y="-756.95" as="targetPoint" />
          </mxGeometry>
        </mxCell>
        <mxCell id="AhWumF3XQHIKjwlk1vKg-12" value="cd:Separate" style="rounded=0;whiteSpace=wrap;html=1;snapToPoint=1;points=[[0.1,0],[0.2,0],[0.3,0],[0.4,0],[0.5,0],[0.6,0],[0.7,0],[0.8,0],[0.9,0],[0,0.1],[0,0.3],[0,0.5],[0,0.7],[0,0.9],[0.1,1],[0.2,1],[0.3,1],[0.4,1],[0.5,1],[0.6,1],[0.7,1],[0.8,1],[0.9,1],[1,0.1],[1,0.3],[1,0.5],[1,0.7],[1,0.9]];fontStyle=0;resizeWidth=1;" parent="1" vertex="1">
          <mxGeometry x="550" y="910" width="240" height="30" as="geometry" />
        </mxCell>
        <mxCell id="AhWumF3XQHIKjwlk1vKg-13" value="" style="endArrow=block;html=1;fontColor=#000099;endFill=0;endSize=8;arcSize=0;elbow=vertical;noEdgeStyle=1;orthogonal=1;strokeColor=#000000;curved=1;fontStyle=0;startArrow=none;startFill=0;" parent="1" source="AhWumF3XQHIKjwlk1vKg-14" target="AhWumF3XQHIKjwlk1vKg-15" edge="1">
          <mxGeometry width="50" height="50" relative="1" as="geometry">
            <mxPoint x="-1534.73" y="-581.95" as="sourcePoint" />
            <mxPoint x="-1965" y="-756.95" as="targetPoint" />
          </mxGeometry>
        </mxCell>
        <mxCell id="AhWumF3XQHIKjwlk1vKg-14" value="cd:Joining" style="rounded=0;whiteSpace=wrap;html=1;snapToPoint=1;points=[[0.1,0],[0.2,0],[0.3,0],[0.4,0],[0.5,0],[0.6,0],[0.7,0],[0.8,0],[0.9,0],[0,0.1],[0,0.3],[0,0.5],[0,0.7],[0,0.9],[0.1,1],[0.2,1],[0.3,1],[0.4,1],[0.5,1],[0.6,1],[0.7,1],[0.8,1],[0.9,1],[1,0.1],[1,0.3],[1,0.5],[1,0.7],[1,0.9]];fontStyle=0;resizeWidth=1;" parent="1" vertex="1">
          <mxGeometry x="550" y="770" width="240" height="30" as="geometry" />
        </mxCell>
        <mxCell id="AhWumF3XQHIKjwlk1vKg-15" value="cd:Manufacturing" style="rounded=0;whiteSpace=wrap;html=1;snapToPoint=1;points=[[0.1,0],[0.2,0],[0.3,0],[0.4,0],[0.5,0],[0.6,0],[0.7,0],[0.8,0],[0.9,0],[0,0.1],[0,0.3],[0,0.5],[0,0.7],[0,0.9],[0.1,1],[0.2,1],[0.3,1],[0.4,1],[0.5,1],[0.6,1],[0.7,1],[0.8,1],[0.9,1],[1,0.1],[1,0.3],[1,0.5],[1,0.7],[1,0.9]];fontStyle=0;resizeWidth=1;treeFolding=0;" parent="1" vertex="1">
          <mxGeometry x="280" y="892.5" width="240" height="30" as="geometry" />
        </mxCell>
        <mxCell id="AhWumF3XQHIKjwlk1vKg-16" value="" style="endArrow=block;html=1;fontColor=#000099;endFill=0;endSize=8;arcSize=0;elbow=vertical;noEdgeStyle=1;orthogonal=1;strokeColor=#000000;curved=1;fontStyle=0;startArrow=none;startFill=0;" parent="1" source="AhWumF3XQHIKjwlk1vKg-17" target="AhWumF3XQHIKjwlk1vKg-15" edge="1">
          <mxGeometry width="50" height="50" relative="1" as="geometry">
            <mxPoint x="-1386.73" y="-581.95" as="sourcePoint" />
            <mxPoint x="-1797.9999999999998" y="-777.95" as="targetPoint" />
          </mxGeometry>
        </mxCell>
        <mxCell id="AhWumF3XQHIKjwlk1vKg-17" value="cd:Coating" style="rounded=0;whiteSpace=wrap;html=1;snapToPoint=1;points=[[0.1,0],[0.2,0],[0.3,0],[0.4,0],[0.5,0],[0.6,0],[0.7,0],[0.8,0],[0.9,0],[0,0.1],[0,0.3],[0,0.5],[0,0.7],[0,0.9],[0.1,1],[0.2,1],[0.3,1],[0.4,1],[0.5,1],[0.6,1],[0.7,1],[0.8,1],[0.9,1],[1,0.1],[1,0.3],[1,0.5],[1,0.7],[1,0.9]];fontStyle=0;resizeWidth=1;" parent="1" vertex="1">
          <mxGeometry x="550" y="700" width="240" height="30" as="geometry" />
        </mxCell>
        <mxCell id="AhWumF3XQHIKjwlk1vKg-18" value="" style="endArrow=block;html=1;fontColor=#000099;endFill=0;endSize=8;arcSize=0;elbow=vertical;noEdgeStyle=1;orthogonal=1;strokeColor=#000000;curved=1;fontStyle=0;startArrow=none;startFill=0;" parent="1" source="AhWumF3XQHIKjwlk1vKg-19" target="AhWumF3XQHIKjwlk1vKg-15" edge="1">
          <mxGeometry width="50" height="50" relative="1" as="geometry">
            <mxPoint x="-1234.73" y="-581.95" as="sourcePoint" />
            <mxPoint x="-1780" y="-777.95" as="targetPoint" />
          </mxGeometry>
        </mxCell>
        <mxCell id="AhWumF3XQHIKjwlk1vKg-19" value="cd:&lt;span style=&quot;font-size: 13px; color: rgb(0, 0, 0); font-weight: normal; text-decoration: none; font-family: Arial; text-decoration-skip-ink: none;&quot;&gt;ChangeMaterialProperties&lt;/span&gt;" style="rounded=0;whiteSpace=wrap;html=1;snapToPoint=1;points=[[0.1,0],[0.2,0],[0.3,0],[0.4,0],[0.5,0],[0.6,0],[0.7,0],[0.8,0],[0.9,0],[0,0.1],[0,0.3],[0,0.5],[0,0.7],[0,0.9],[0.1,1],[0.2,1],[0.3,1],[0.4,1],[0.5,1],[0.6,1],[0.7,1],[0.8,1],[0.9,1],[1,0.1],[1,0.3],[1,0.5],[1,0.7],[1,0.9]];fontStyle=0;resizeWidth=1;" parent="1" vertex="1">
          <mxGeometry x="550" y="630" width="240" height="30" as="geometry" />
        </mxCell>
        <mxCell id="AhWumF3XQHIKjwlk1vKg-20" value="" style="endArrow=block;html=1;fontColor=#000099;endFill=0;endSize=8;arcSize=0;elbow=vertical;edgeStyle=orthogonalEdgeStyle;noEdgeStyle=1;orthogonal=1;strokeColor=#000000;curved=1;fontStyle=0;startArrow=none;startFill=0;" parent="1" source="AhWumF3XQHIKjwlk1vKg-21" target="AhWumF3XQHIKjwlk1vKg-8" edge="1">
          <mxGeometry width="50" height="50" relative="1" as="geometry">
            <mxPoint x="-2257" y="-382.95000000000005" as="sourcePoint" />
            <mxPoint x="-2460" y="-547.95" as="targetPoint" />
          </mxGeometry>
        </mxCell>
        <mxCell id="AhWumF3XQHIKjwlk1vKg-21" value="cd:Casting" style="rounded=0;whiteSpace=wrap;html=1;snapToPoint=1;points=[[0.1,0],[0.2,0],[0.3,0],[0.4,0],[0.5,0],[0.6,0],[0.7,0],[0.8,0],[0.9,0],[0,0.1],[0,0.3],[0,0.5],[0,0.7],[0,0.9],[0.1,1],[0.2,1],[0.3,1],[0.4,1],[0.5,1],[0.6,1],[0.7,1],[0.8,1],[0.9,1],[1,0.1],[1,0.3],[1,0.5],[1,0.7],[1,0.9]];fontStyle=0;resizeWidth=1;" parent="1" vertex="1">
          <mxGeometry x="820" y="1330" width="240" height="30" as="geometry" />
        </mxCell>
        <mxCell id="AhWumF3XQHIKjwlk1vKg-22" value="" style="endArrow=block;html=1;fontColor=#000099;endFill=0;endSize=8;arcSize=0;elbow=vertical;edgeStyle=orthogonalEdgeStyle;noEdgeStyle=1;orthogonal=1;strokeColor=#000000;curved=1;fontStyle=0;startArrow=none;startFill=0;" parent="1" source="AhWumF3XQHIKjwlk1vKg-23" target="AhWumF3XQHIKjwlk1vKg-21" edge="1">
          <mxGeometry width="50" height="50" relative="1" as="geometry">
            <mxPoint x="-2585" y="-242.95000000000005" as="sourcePoint" />
            <mxPoint x="-3090" y="-427.95000000000005" as="targetPoint" />
          </mxGeometry>
        </mxCell>
        <mxCell id="AhWumF3XQHIKjwlk1vKg-23" value="cd:GravityCasting" style="rounded=0;whiteSpace=wrap;html=1;snapToPoint=1;points=[[0.1,0],[0.2,0],[0.3,0],[0.4,0],[0.5,0],[0.6,0],[0.7,0],[0.8,0],[0.9,0],[0,0.1],[0,0.3],[0,0.5],[0,0.7],[0,0.9],[0.1,1],[0.2,1],[0.3,1],[0.4,1],[0.5,1],[0.6,1],[0.7,1],[0.8,1],[0.9,1],[1,0.1],[1,0.3],[1,0.5],[1,0.7],[1,0.9]];fontStyle=0;resizeWidth=1;" parent="1" vertex="1">
          <mxGeometry x="1090" y="1470" width="240" height="30" as="geometry" />
        </mxCell>
        <mxCell id="AhWumF3XQHIKjwlk1vKg-24" value="" style="endArrow=block;html=1;fontColor=#000099;endFill=0;endSize=8;arcSize=0;elbow=vertical;edgeStyle=orthogonalEdgeStyle;noEdgeStyle=1;orthogonal=1;strokeColor=#000000;curved=1;fontStyle=0;startArrow=none;startFill=0;" parent="1" source="AhWumF3XQHIKjwlk1vKg-25" target="AhWumF3XQHIKjwlk1vKg-21" edge="1">
          <mxGeometry width="50" height="50" relative="1" as="geometry">
            <mxPoint x="-2585" y="-182.95000000000005" as="sourcePoint" />
            <mxPoint x="-3172" y="-367.95000000000005" as="targetPoint" />
          </mxGeometry>
        </mxCell>
        <mxCell id="AhWumF3XQHIKjwlk1vKg-25" value="cd:PressureCasting" style="rounded=0;whiteSpace=wrap;html=1;snapToPoint=1;points=[[0.1,0],[0.2,0],[0.3,0],[0.4,0],[0.5,0],[0.6,0],[0.7,0],[0.8,0],[0.9,0],[0,0.1],[0,0.3],[0,0.5],[0,0.7],[0,0.9],[0.1,1],[0.2,1],[0.3,1],[0.4,1],[0.5,1],[0.6,1],[0.7,1],[0.8,1],[0.9,1],[1,0.1],[1,0.3],[1,0.5],[1,0.7],[1,0.9]];fontStyle=0;resizeWidth=1;" parent="1" vertex="1">
          <mxGeometry x="1090" y="1400" width="240" height="30" as="geometry" />
        </mxCell>
        <mxCell id="AhWumF3XQHIKjwlk1vKg-26" value="" style="endArrow=block;html=1;fontColor=#000099;endFill=0;endSize=8;arcSize=0;elbow=vertical;edgeStyle=orthogonalEdgeStyle;noEdgeStyle=1;orthogonal=1;strokeColor=#000000;curved=1;fontStyle=0;startArrow=none;startFill=0;" parent="1" source="AhWumF3XQHIKjwlk1vKg-27" target="AhWumF3XQHIKjwlk1vKg-21" edge="1">
          <mxGeometry width="50" height="50" relative="1" as="geometry">
            <mxPoint x="-2585" y="-137.95000000000005" as="sourcePoint" />
            <mxPoint x="-3172" y="-427.95000000000005" as="targetPoint" />
          </mxGeometry>
        </mxCell>
        <mxCell id="AhWumF3XQHIKjwlk1vKg-27" value="cd:LowPressureCasting" style="rounded=0;whiteSpace=wrap;html=1;snapToPoint=1;points=[[0.1,0],[0.2,0],[0.3,0],[0.4,0],[0.5,0],[0.6,0],[0.7,0],[0.8,0],[0.9,0],[0,0.1],[0,0.3],[0,0.5],[0,0.7],[0,0.9],[0.1,1],[0.2,1],[0.3,1],[0.4,1],[0.5,1],[0.6,1],[0.7,1],[0.8,1],[0.9,1],[1,0.1],[1,0.3],[1,0.5],[1,0.7],[1,0.9]];fontStyle=0;resizeWidth=1;" parent="1" vertex="1">
          <mxGeometry x="1090" y="1330" width="240" height="30" as="geometry" />
        </mxCell>
        <mxCell id="AhWumF3XQHIKjwlk1vKg-28" value="" style="endArrow=block;html=1;fontColor=#000099;endFill=0;endSize=8;arcSize=0;elbow=vertical;edgeStyle=orthogonalEdgeStyle;noEdgeStyle=1;orthogonal=1;strokeColor=#000000;curved=1;fontStyle=0;startArrow=none;startFill=0;" parent="1" source="AhWumF3XQHIKjwlk1vKg-29" target="AhWumF3XQHIKjwlk1vKg-21" edge="1">
          <mxGeometry width="50" height="50" relative="1" as="geometry">
            <mxPoint x="-2585" y="-87.95000000000005" as="sourcePoint" />
            <mxPoint x="-3172" y="-377.95000000000005" as="targetPoint" />
          </mxGeometry>
        </mxCell>
        <mxCell id="AhWumF3XQHIKjwlk1vKg-29" value="cd:CentrifugalCasting" style="rounded=0;whiteSpace=wrap;html=1;snapToPoint=1;points=[[0.1,0],[0.2,0],[0.3,0],[0.4,0],[0.5,0],[0.6,0],[0.7,0],[0.8,0],[0.9,0],[0,0.1],[0,0.3],[0,0.5],[0,0.7],[0,0.9],[0.1,1],[0.2,1],[0.3,1],[0.4,1],[0.5,1],[0.6,1],[0.7,1],[0.8,1],[0.9,1],[1,0.1],[1,0.3],[1,0.5],[1,0.7],[1,0.9]];fontStyle=0;resizeWidth=1;" parent="1" vertex="1">
          <mxGeometry x="1090" y="1260" width="240" height="30" as="geometry" />
        </mxCell>
        <mxCell id="AhWumF3XQHIKjwlk1vKg-30" value="" style="endArrow=block;html=1;fontColor=#000099;endFill=0;endSize=8;arcSize=0;elbow=vertical;edgeStyle=orthogonalEdgeStyle;noEdgeStyle=1;orthogonal=1;strokeColor=#000000;curved=1;fontStyle=0;startArrow=none;startFill=0;" parent="1" source="AhWumF3XQHIKjwlk1vKg-32" target="AhWumF3XQHIKjwlk1vKg-21" edge="1">
          <mxGeometry width="50" height="50" relative="1" as="geometry">
            <mxPoint x="-2575" y="-77.95000000000005" as="sourcePoint" />
            <mxPoint x="-3162" y="-417.95000000000005" as="targetPoint" />
          </mxGeometry>
        </mxCell>
        <mxCell id="AhWumF3XQHIKjwlk1vKg-31" value="" style="edgeStyle=orthogonalEdgeStyle;orthogonalLoop=1;jettySize=auto;html=1;noEdgeStyle=1;orthogonal=1;endArrow=block;endFill=0;strokeColor=#000000;curved=1;fontStyle=0;startArrow=none;startFill=0;" parent="1" source="AhWumF3XQHIKjwlk1vKg-32" target="AhWumF3XQHIKjwlk1vKg-21" edge="1">
          <mxGeometry relative="1" as="geometry" />
        </mxCell>
        <mxCell id="AhWumF3XQHIKjwlk1vKg-32" value="cd:ContinuousCasting" style="rounded=0;whiteSpace=wrap;html=1;snapToPoint=1;points=[[0.1,0],[0.2,0],[0.3,0],[0.4,0],[0.5,0],[0.6,0],[0.7,0],[0.8,0],[0.9,0],[0,0.1],[0,0.3],[0,0.5],[0,0.7],[0,0.9],[0.1,1],[0.2,1],[0.3,1],[0.4,1],[0.5,1],[0.6,1],[0.7,1],[0.8,1],[0.9,1],[1,0.1],[1,0.3],[1,0.5],[1,0.7],[1,0.9]];fontStyle=0;resizeWidth=1;" parent="1" vertex="1">
          <mxGeometry x="1090" y="1190" width="240" height="30" as="geometry" />
        </mxCell>
        <mxCell id="AhWumF3XQHIKjwlk1vKg-33" value="" style="endArrow=block;html=1;fontColor=#000099;endFill=0;endSize=8;arcSize=0;elbow=vertical;edgeStyle=orthogonalEdgeStyle;noEdgeStyle=1;orthogonal=1;strokeColor=#000000;curved=1;fontStyle=0;startArrow=none;startFill=0;" parent="1" source="AhWumF3XQHIKjwlk1vKg-35" target="AhWumF3XQHIKjwlk1vKg-8" edge="1">
          <mxGeometry width="50" height="50" relative="1" as="geometry">
            <mxPoint x="-3320" y="-41.370000000000005" as="sourcePoint" />
            <mxPoint x="-3162" y="-417.95000000000005" as="targetPoint" />
          </mxGeometry>
        </mxCell>
        <mxCell id="AhWumF3XQHIKjwlk1vKg-34" value="" style="edgeStyle=orthogonalEdgeStyle;orthogonalLoop=1;jettySize=auto;html=1;noEdgeStyle=1;orthogonal=1;endArrow=block;endFill=0;strokeColor=#000000;curved=1;fontStyle=0;startArrow=none;startFill=0;" parent="1" source="AhWumF3XQHIKjwlk1vKg-36" target="AhWumF3XQHIKjwlk1vKg-35" edge="1">
          <mxGeometry relative="1" as="geometry">
            <mxPoint x="-1180" y="703.6300000000001" as="sourcePoint" />
          </mxGeometry>
        </mxCell>
        <mxCell id="AhWumF3XQHIKjwlk1vKg-35" value="cd:Foaming" style="rounded=0;whiteSpace=wrap;html=1;snapToPoint=1;points=[[0.1,0],[0.2,0],[0.3,0],[0.4,0],[0.5,0],[0.6,0],[0.7,0],[0.8,0],[0.9,0],[0,0.1],[0,0.3],[0,0.5],[0,0.7],[0,0.9],[0.1,1],[0.2,1],[0.3,1],[0.4,1],[0.5,1],[0.6,1],[0.7,1],[0.8,1],[0.9,1],[1,0.1],[1,0.3],[1,0.5],[1,0.7],[1,0.9]];fontStyle=0;resizeWidth=1;" parent="1" vertex="1">
          <mxGeometry x="820" y="1120" width="240" height="30" as="geometry" />
        </mxCell>
        <mxCell id="AhWumF3XQHIKjwlk1vKg-36" value="cd:DipForming" style="rounded=0;whiteSpace=wrap;html=1;snapToPoint=1;points=[[0.1,0],[0.2,0],[0.3,0],[0.4,0],[0.5,0],[0.6,0],[0.7,0],[0.8,0],[0.9,0],[0,0.1],[0,0.3],[0,0.5],[0,0.7],[0,0.9],[0.1,1],[0.2,1],[0.3,1],[0.4,1],[0.5,1],[0.6,1],[0.7,1],[0.8,1],[0.9,1],[1,0.1],[1,0.3],[1,0.5],[1,0.7],[1,0.9]];fontStyle=0;resizeWidth=1;" parent="1" vertex="1">
          <mxGeometry x="1090" y="1120" width="240" height="30" as="geometry" />
        </mxCell>
        <mxCell id="AhWumF3XQHIKjwlk1vKg-37" value="p-plan:Step" style="rounded=0;whiteSpace=wrap;html=1;snapToPoint=1;points=[[0.1,0],[0.2,0],[0.3,0],[0.4,0],[0.5,0],[0.6,0],[0.7,0],[0.8,0],[0.9,0],[0,0.1],[0,0.3],[0,0.5],[0,0.7],[0,0.9],[0.1,1],[0.2,1],[0.3,1],[0.4,1],[0.5,1],[0.6,1],[0.7,1],[0.8,1],[0.9,1],[1,0.1],[1,0.3],[1,0.5],[1,0.7],[1,0.9]];fontStyle=0;resizeWidth=1;" parent="1" vertex="1">
          <mxGeometry y="400" width="240" height="30" as="geometry" />
        </mxCell>
        <mxCell id="AhWumF3XQHIKjwlk1vKg-38" value="prov:Activity" style="rounded=0;whiteSpace=wrap;html=1;snapToPoint=1;points=[[0.1,0],[0.2,0],[0.3,0],[0.4,0],[0.5,0],[0.6,0],[0.7,0],[0.8,0],[0.9,0],[0,0.1],[0,0.3],[0,0.5],[0,0.7],[0,0.9],[0.1,1],[0.2,1],[0.3,1],[0.4,1],[0.5,1],[0.6,1],[0.7,1],[0.8,1],[0.9,1],[1,0.1],[1,0.3],[1,0.5],[1,0.7],[1,0.9]];fontStyle=0;resizeWidth=1;treeFolding=0;" parent="1" vertex="1">
          <mxGeometry y="680" width="240" height="30" as="geometry" />
        </mxCell>
        <mxCell id="AhWumF3XQHIKjwlk1vKg-39" value="" style="endArrow=block;html=1;fontColor=#000099;endFill=0;endSize=8;arcSize=0;elbow=vertical;noEdgeStyle=1;orthogonal=1;strokeColor=#000000;curved=1;fontStyle=0;startArrow=none;startFill=0;" parent="1" source="AhWumF3XQHIKjwlk1vKg-15" target="WS4uRJv9I919AFa0ZckU-1" edge="1">
          <mxGeometry width="50" height="50" relative="1" as="geometry">
            <mxPoint x="-129.99571428571426" y="444.20000000000005" as="sourcePoint" />
            <mxPoint x="-383.9452941176469" y="516.6829411764706" as="targetPoint" />
          </mxGeometry>
        </mxCell>
        <mxCell id="AhWumF3XQHIKjwlk1vKg-40" value="" style="endArrow=block;html=1;fontColor=#000099;endFill=0;endSize=8;arcSize=0;elbow=vertical;noEdgeStyle=1;orthogonal=1;strokeColor=#000000;curved=1;fontStyle=0;startArrow=none;startFill=0;" parent="1" source="WS4uRJv9I919AFa0ZckU-1" target="AhWumF3XQHIKjwlk1vKg-37" edge="1">
          <mxGeometry width="50" height="50" relative="1" as="geometry">
            <mxPoint x="-129.99571428571426" y="444.20000000000005" as="sourcePoint" />
            <mxPoint x="-373.9452941176469" y="526.6829411764706" as="targetPoint" />
          </mxGeometry>
        </mxCell>
        <mxCell id="AhWumF3XQHIKjwlk1vKg-41" value="" style="endArrow=block;html=1;fontColor=#000099;endFill=0;endSize=8;arcSize=0;noEdgeStyle=1;orthogonal=1;strokeColor=#000000;curved=1;fontStyle=0;startArrow=none;startFill=0;" parent="1" source="AhWumF3XQHIKjwlk1vKg-43" target="AhWumF3XQHIKjwlk1vKg-42" edge="1">
          <mxGeometry width="50" height="50" relative="1" as="geometry">
            <mxPoint x="-1315" y="745.5" as="sourcePoint" />
            <mxPoint x="-1157.0000000000107" y="745.5" as="targetPoint" />
          </mxGeometry>
        </mxCell>
        <mxCell id="AhWumF3XQHIKjwlk1vKg-42" value="cd:HardnessTest" style="rounded=0;whiteSpace=wrap;html=1;snapToPoint=1;points=[[0.1,0],[0.2,0],[0.3,0],[0.4,0],[0.5,0],[0.6,0],[0.7,0],[0.8,0],[0.9,0],[0,0.1],[0,0.3],[0,0.5],[0,0.7],[0,0.9],[0.1,1],[0.2,1],[0.3,1],[0.4,1],[0.5,1],[0.6,1],[0.7,1],[0.8,1],[0.9,1],[1,0.1],[1,0.3],[1,0.5],[1,0.7],[1,0.9]];fontStyle=0;resizeWidth=1;" parent="1" vertex="1">
          <mxGeometry x="550" y="455" width="240" height="30" as="geometry" />
        </mxCell>
        <mxCell id="AhWumF3XQHIKjwlk1vKg-43" value="cd:BrinellTest" style="rounded=0;whiteSpace=wrap;html=1;snapToPoint=1;points=[[0.1,0],[0.2,0],[0.3,0],[0.4,0],[0.5,0],[0.6,0],[0.7,0],[0.8,0],[0.9,0],[0,0.1],[0,0.3],[0,0.5],[0,0.7],[0,0.9],[0.1,1],[0.2,1],[0.3,1],[0.4,1],[0.5,1],[0.6,1],[0.7,1],[0.8,1],[0.9,1],[1,0.1],[1,0.3],[1,0.5],[1,0.7],[1,0.9]];fontStyle=0;resizeWidth=1;" parent="1" vertex="1">
          <mxGeometry x="820" y="490" width="240" height="30" as="geometry" />
        </mxCell>
        <mxCell id="AhWumF3XQHIKjwlk1vKg-44" value="" style="endArrow=block;html=1;fontColor=#000099;endFill=0;endSize=8;arcSize=0;noEdgeStyle=1;orthogonal=1;strokeColor=#000000;curved=1;fontStyle=0;startArrow=none;startFill=0;" parent="1" source="AhWumF3XQHIKjwlk1vKg-45" target="AhWumF3XQHIKjwlk1vKg-42" edge="1">
          <mxGeometry width="50" height="50" relative="1" as="geometry">
            <mxPoint x="-1305" y="755.5" as="sourcePoint" />
            <mxPoint x="-1050" y="725.5" as="targetPoint" />
          </mxGeometry>
        </mxCell>
        <mxCell id="AhWumF3XQHIKjwlk1vKg-45" value="cd:VickersTest" style="rounded=0;whiteSpace=wrap;html=1;snapToPoint=1;points=[[0.1,0],[0.2,0],[0.3,0],[0.4,0],[0.5,0],[0.6,0],[0.7,0],[0.8,0],[0.9,0],[0,0.1],[0,0.3],[0,0.5],[0,0.7],[0,0.9],[0.1,1],[0.2,1],[0.3,1],[0.4,1],[0.5,1],[0.6,1],[0.7,1],[0.8,1],[0.9,1],[1,0.1],[1,0.3],[1,0.5],[1,0.7],[1,0.9]];fontStyle=0;resizeWidth=1;" parent="1" vertex="1">
          <mxGeometry x="820" y="420" width="240" height="30" as="geometry" />
        </mxCell>
        <mxCell id="AhWumF3XQHIKjwlk1vKg-46" value="" style="endArrow=block;html=1;fontColor=#000099;endFill=0;endSize=8;arcSize=0;noEdgeStyle=1;orthogonal=1;strokeColor=#000000;curved=1;fontStyle=0;startArrow=none;startFill=0;" parent="1" source="AhWumF3XQHIKjwlk1vKg-42" target="AhWumF3XQHIKjwlk1vKg-47" edge="1">
          <mxGeometry width="50" height="50" relative="1" as="geometry">
            <mxPoint x="-710" y="585.5" as="sourcePoint" />
            <mxPoint x="-827.0000000000107" y="525.5" as="targetPoint" />
          </mxGeometry>
        </mxCell>
        <mxCell id="AhWumF3XQHIKjwlk1vKg-47" value="&lt;div&gt;cd:Analysis&lt;/div&gt;" style="rounded=0;whiteSpace=wrap;html=1;snapToPoint=1;points=[[0.1,0],[0.2,0],[0.3,0],[0.4,0],[0.5,0],[0.6,0],[0.7,0],[0.8,0],[0.9,0],[0,0.1],[0,0.3],[0,0.5],[0,0.7],[0,0.9],[0.1,1],[0.2,1],[0.3,1],[0.4,1],[0.5,1],[0.6,1],[0.7,1],[0.8,1],[0.9,1],[1,0.1],[1,0.3],[1,0.5],[1,0.7],[1,0.9]];fontStyle=0;resizeWidth=1;" parent="1" vertex="1">
          <mxGeometry x="280" y="227.5" width="240" height="30" as="geometry" />
        </mxCell>
        <mxCell id="AhWumF3XQHIKjwlk1vKg-48" value="" style="endArrow=block;html=1;fontColor=#000099;endFill=0;endSize=8;arcSize=0;noEdgeStyle=1;orthogonal=1;strokeColor=#000000;curved=1;fontStyle=0;startArrow=none;startFill=0;" parent="1" source="AhWumF3XQHIKjwlk1vKg-47" target="WS4uRJv9I919AFa0ZckU-1" edge="1">
          <mxGeometry width="50" height="50" relative="1" as="geometry">
            <mxPoint x="-104.28142857142848" y="527.0571428571432" as="sourcePoint" />
            <mxPoint x="-705.71" y="975.2" as="targetPoint" />
          </mxGeometry>
        </mxCell>
        <mxCell id="AhWumF3XQHIKjwlk1vKg-49" value="" style="endArrow=block;html=1;fontColor=#000099;endFill=0;endSize=8;arcSize=0;noEdgeStyle=1;orthogonal=1;strokeColor=#000000;curved=1;fontStyle=0;startArrow=none;startFill=0;" parent="1" source="WS4uRJv9I919AFa0ZckU-1" target="AhWumF3XQHIKjwlk1vKg-38" edge="1">
          <mxGeometry width="50" height="50" relative="1" as="geometry">
            <mxPoint x="-104.28142857142848" y="527.0571428571432" as="sourcePoint" />
            <mxPoint x="-47.710000000000036" y="255.20000000000005" as="targetPoint" />
          </mxGeometry>
        </mxCell>
        <mxCell id="AhWumF3XQHIKjwlk1vKg-50" value="cd:Microscopy" style="rounded=0;whiteSpace=wrap;html=1;snapToPoint=1;points=[[0.1,0],[0.2,0],[0.3,0],[0.4,0],[0.5,0],[0.6,0],[0.7,0],[0.8,0],[0.9,0],[0,0.1],[0,0.3],[0,0.5],[0,0.7],[0,0.9],[0.1,1],[0.2,1],[0.3,1],[0.4,1],[0.5,1],[0.6,1],[0.7,1],[0.8,1],[0.9,1],[1,0.1],[1,0.3],[1,0.5],[1,0.7],[1,0.9]];fontStyle=0;resizeWidth=1;" parent="1" vertex="1">
          <mxGeometry x="550" y="210" width="240" height="30" as="geometry" />
        </mxCell>
        <mxCell id="AhWumF3XQHIKjwlk1vKg-51" value="" style="endArrow=block;html=1;fontColor=#000099;endFill=0;endSize=8;arcSize=0;noEdgeStyle=1;orthogonal=1;strokeColor=#000000;curved=1;fontStyle=0;startArrow=none;startFill=0;" parent="1" source="AhWumF3XQHIKjwlk1vKg-52" target="AhWumF3XQHIKjwlk1vKg-50" edge="1">
          <mxGeometry width="50" height="50" relative="1" as="geometry">
            <mxPoint x="-886" y="599.5" as="sourcePoint" />
            <mxPoint x="-501" y="559.5" as="targetPoint" />
          </mxGeometry>
        </mxCell>
        <mxCell id="AhWumF3XQHIKjwlk1vKg-52" value="cd:LightOpticalMicroscopy" style="rounded=0;whiteSpace=wrap;html=1;snapToPoint=1;points=[[0.1,0],[0.2,0],[0.3,0],[0.4,0],[0.5,0],[0.6,0],[0.7,0],[0.8,0],[0.9,0],[0,0.1],[0,0.3],[0,0.5],[0,0.7],[0,0.9],[0.1,1],[0.2,1],[0.3,1],[0.4,1],[0.5,1],[0.6,1],[0.7,1],[0.8,1],[0.9,1],[1,0.1],[1,0.3],[1,0.5],[1,0.7],[1,0.9]];fontStyle=0;resizeWidth=1;" parent="1" vertex="1">
          <mxGeometry x="820" y="280" width="240" height="30" as="geometry" />
        </mxCell>
        <mxCell id="AhWumF3XQHIKjwlk1vKg-53" value="" style="endArrow=block;html=1;fontColor=#000099;endFill=0;endSize=8;arcSize=0;noEdgeStyle=1;orthogonal=1;strokeColor=#000000;curved=1;fontStyle=0;startArrow=none;startFill=0;" parent="1" source="AhWumF3XQHIKjwlk1vKg-54" target="AhWumF3XQHIKjwlk1vKg-50" edge="1">
          <mxGeometry width="50" height="50" relative="1" as="geometry">
            <mxPoint x="-696" y="599.5" as="sourcePoint" />
            <mxPoint x="-476" y="545.5" as="targetPoint" />
          </mxGeometry>
        </mxCell>
        <mxCell id="AhWumF3XQHIKjwlk1vKg-54" value="cd:ScanningElectronMicroscopy" style="rounded=0;whiteSpace=wrap;html=1;snapToPoint=1;points=[[0.1,0],[0.2,0],[0.3,0],[0.4,0],[0.5,0],[0.6,0],[0.7,0],[0.8,0],[0.9,0],[0,0.1],[0,0.3],[0,0.5],[0,0.7],[0,0.9],[0.1,1],[0.2,1],[0.3,1],[0.4,1],[0.5,1],[0.6,1],[0.7,1],[0.8,1],[0.9,1],[1,0.1],[1,0.3],[1,0.5],[1,0.7],[1,0.9]];fontStyle=0;resizeWidth=1;" parent="1" vertex="1">
          <mxGeometry x="820" y="210" width="240" height="30" as="geometry" />
        </mxCell>
        <mxCell id="AhWumF3XQHIKjwlk1vKg-55" value="" style="endArrow=block;html=1;fontColor=#000099;endFill=0;endSize=8;arcSize=0;noEdgeStyle=1;orthogonal=1;strokeColor=#000000;curved=1;fontStyle=0;startArrow=none;startFill=0;" parent="1" source="AhWumF3XQHIKjwlk1vKg-56" target="AhWumF3XQHIKjwlk1vKg-50" edge="1">
          <mxGeometry width="50" height="50" relative="1" as="geometry">
            <mxPoint x="-506" y="601.5" as="sourcePoint" />
            <mxPoint x="-446" y="547.5" as="targetPoint" />
          </mxGeometry>
        </mxCell>
        <mxCell id="AhWumF3XQHIKjwlk1vKg-56" value="cd:TransmissionElectronMicroscopy" style="rounded=0;whiteSpace=wrap;html=1;snapToPoint=1;points=[[0.1,0],[0.2,0],[0.3,0],[0.4,0],[0.5,0],[0.6,0],[0.7,0],[0.8,0],[0.9,0],[0,0.1],[0,0.3],[0,0.5],[0,0.7],[0,0.9],[0.1,1],[0.2,1],[0.3,1],[0.4,1],[0.5,1],[0.6,1],[0.7,1],[0.8,1],[0.9,1],[1,0.1],[1,0.3],[1,0.5],[1,0.7],[1,0.9]];fontStyle=0;resizeWidth=1;" parent="1" vertex="1">
          <mxGeometry x="820" y="140" width="240" height="30" as="geometry" />
        </mxCell>
        <mxCell id="AhWumF3XQHIKjwlk1vKg-57" value="" style="endArrow=block;html=1;fontColor=#000099;endFill=0;endSize=8;arcSize=0;noEdgeStyle=1;orthogonal=1;strokeColor=#000000;curved=1;fontStyle=0;startArrow=none;startFill=0;" parent="1" source="AhWumF3XQHIKjwlk1vKg-58" target="AhWumF3XQHIKjwlk1vKg-47" edge="1">
          <mxGeometry width="50" height="50" relative="1" as="geometry">
            <mxPoint x="-261" y="601.5" as="sourcePoint" />
            <mxPoint x="-361" y="545.5" as="targetPoint" />
          </mxGeometry>
        </mxCell>
        <mxCell id="AhWumF3XQHIKjwlk1vKg-58" value="cd:ElectronBackScatterDiffraction" style="rounded=0;whiteSpace=wrap;html=1;snapToPoint=1;points=[[0.1,0],[0.2,0],[0.3,0],[0.4,0],[0.5,0],[0.6,0],[0.7,0],[0.8,0],[0.9,0],[0,0.1],[0,0.3],[0,0.5],[0,0.7],[0,0.9],[0.1,1],[0.2,1],[0.3,1],[0.4,1],[0.5,1],[0.6,1],[0.7,1],[0.8,1],[0.9,1],[1,0.1],[1,0.3],[1,0.5],[1,0.7],[1,0.9]];fontStyle=0;resizeWidth=1;" parent="1" vertex="1">
          <mxGeometry x="550" y="350" width="240" height="30" as="geometry" />
        </mxCell>
        <mxCell id="AhWumF3XQHIKjwlk1vKg-59" value="" style="endArrow=block;html=1;fontColor=#000099;endFill=0;endSize=8;arcSize=0;noEdgeStyle=1;orthogonal=1;strokeColor=#000000;curved=1;fontStyle=0;startArrow=none;startFill=0;" parent="1" source="AhWumF3XQHIKjwlk1vKg-50" target="AhWumF3XQHIKjwlk1vKg-47" edge="1">
          <mxGeometry width="50" height="50" relative="1" as="geometry">
            <mxPoint x="-819" y="475.5" as="sourcePoint" />
            <mxPoint x="-401" y="250.5" as="targetPoint" />
          </mxGeometry>
        </mxCell>
        <mxCell id="AhWumF3XQHIKjwlk1vKg-60" value="" style="endArrow=block;html=1;fontColor=#000099;endFill=0;endSize=8;arcSize=0;orthogonal=1;edgeStyle=entityRelationEdgeStyle;curved=1;noEdgeStyle=1;fontStyle=0;startArrow=none;startFill=0;" parent="1" source="AhWumF3XQHIKjwlk1vKg-61" target="AhWumF3XQHIKjwlk1vKg-62" edge="1">
          <mxGeometry width="50" height="50" relative="1" as="geometry">
            <mxPoint x="-140" y="715.5" as="sourcePoint" />
            <mxPoint x="-140" y="685.5" as="targetPoint" />
          </mxGeometry>
        </mxCell>
        <mxCell id="AhWumF3XQHIKjwlk1vKg-61" value="cd:PrecipitationAnnealing" style="rounded=0;whiteSpace=wrap;html=1;snapToPoint=1;points=[[0.1,0],[0.2,0],[0.3,0],[0.4,0],[0.5,0],[0.6,0],[0.7,0],[0.8,0],[0.9,0],[0,0.1],[0,0.3],[0,0.5],[0,0.7],[0,0.9],[0.1,1],[0.2,1],[0.3,1],[0.4,1],[0.5,1],[0.6,1],[0.7,1],[0.8,1],[0.9,1],[1,0.1],[1,0.3],[1,0.5],[1,0.7],[1,0.9]];fontStyle=0;resizeWidth=1;" parent="1" vertex="1">
          <mxGeometry x="1090" y="700" width="240" height="30" as="geometry" />
        </mxCell>
        <mxCell id="AhWumF3XQHIKjwlk1vKg-62" value="cd:Annealing" style="rounded=0;whiteSpace=wrap;html=1;snapToPoint=1;points=[[0.1,0],[0.2,0],[0.3,0],[0.4,0],[0.5,0],[0.6,0],[0.7,0],[0.8,0],[0.9,0],[0,0.1],[0,0.3],[0,0.5],[0,0.7],[0,0.9],[0.1,1],[0.2,1],[0.3,1],[0.4,1],[0.5,1],[0.6,1],[0.7,1],[0.8,1],[0.9,1],[1,0.1],[1,0.3],[1,0.5],[1,0.7],[1,0.9]];fontStyle=0;resizeWidth=1;" parent="1" vertex="1">
          <mxGeometry x="820" y="630" width="240" height="30" as="geometry" />
        </mxCell>
        <mxCell id="AhWumF3XQHIKjwlk1vKg-63" value="cd:HomogenizationAnnealing" style="rounded=0;whiteSpace=wrap;html=1;snapToPoint=1;points=[[0.1,0],[0.2,0],[0.3,0],[0.4,0],[0.5,0],[0.6,0],[0.7,0],[0.8,0],[0.9,0],[0,0.1],[0,0.3],[0,0.5],[0,0.7],[0,0.9],[0.1,1],[0.2,1],[0.3,1],[0.4,1],[0.5,1],[0.6,1],[0.7,1],[0.8,1],[0.9,1],[1,0.1],[1,0.3],[1,0.5],[1,0.7],[1,0.9]];fontStyle=0;resizeWidth=1;" parent="1" vertex="1">
          <mxGeometry x="1090" y="630" width="240" height="30" as="geometry" />
        </mxCell>
        <mxCell id="AhWumF3XQHIKjwlk1vKg-64" value="" style="endArrow=block;html=1;fontColor=#000099;endFill=0;endSize=8;arcSize=0;orthogonal=1;edgeStyle=entityRelationEdgeStyle;curved=1;noEdgeStyle=1;fontStyle=0;startArrow=none;startFill=0;" parent="1" source="AhWumF3XQHIKjwlk1vKg-63" target="AhWumF3XQHIKjwlk1vKg-62" edge="1">
          <mxGeometry width="50" height="50" relative="1" as="geometry">
            <mxPoint x="-81" y="765.5" as="sourcePoint" />
            <mxPoint x="-155" y="675.5" as="targetPoint" />
          </mxGeometry>
        </mxCell>
        <mxCell id="AhWumF3XQHIKjwlk1vKg-65" value="" style="endArrow=block;html=1;fontColor=#000099;endFill=0;endSize=8;arcSize=0;noEdgeStyle=1;orthogonal=1;strokeColor=#000000;curved=1;fontStyle=0;startArrow=none;startFill=0;" parent="1" source="AhWumF3XQHIKjwlk1vKg-62" target="AhWumF3XQHIKjwlk1vKg-19" edge="1">
          <mxGeometry width="50" height="50" relative="1" as="geometry">
            <mxPoint x="-405" y="645.5" as="sourcePoint" />
            <mxPoint x="-206" y="565.5" as="targetPoint" />
          </mxGeometry>
        </mxCell>
        <mxCell id="AhWumF3XQHIKjwlk1vKg-66" value="" style="endArrow=block;html=1;fontColor=#000099;endFill=0;endSize=8;arcSize=0;orthogonal=1;edgeStyle=entityRelationEdgeStyle;curved=1;noEdgeStyle=1;fontStyle=0;startArrow=none;startFill=0;" parent="1" source="AhWumF3XQHIKjwlk1vKg-67" target="AhWumF3XQHIKjwlk1vKg-62" edge="1">
          <mxGeometry width="50" height="50" relative="1" as="geometry">
            <mxPoint x="45" y="715.5" as="sourcePoint" />
            <mxPoint x="-1010" y="775.5" as="targetPoint" />
          </mxGeometry>
        </mxCell>
        <mxCell id="AhWumF3XQHIKjwlk1vKg-67" value="cd:DiffusionAnnealing" style="rounded=0;whiteSpace=wrap;html=1;snapToPoint=1;points=[[0.1,0],[0.2,0],[0.3,0],[0.4,0],[0.5,0],[0.6,0],[0.7,0],[0.8,0],[0.9,0],[0,0.1],[0,0.3],[0,0.5],[0,0.7],[0,0.9],[0.1,1],[0.2,1],[0.3,1],[0.4,1],[0.5,1],[0.6,1],[0.7,1],[0.8,1],[0.9,1],[1,0.1],[1,0.3],[1,0.5],[1,0.7],[1,0.9]];fontStyle=0;resizeWidth=1;" parent="1" vertex="1">
          <mxGeometry x="1090" y="560" width="240" height="30" as="geometry" />
        </mxCell>
        <mxCell id="AhWumF3XQHIKjwlk1vKg-68" value="cd:JoiningByWelding" style="rounded=0;whiteSpace=wrap;html=1;snapToPoint=1;points=[[0.1,0],[0.2,0],[0.3,0],[0.4,0],[0.5,0],[0.6,0],[0.7,0],[0.8,0],[0.9,0],[0,0.1],[0,0.3],[0,0.5],[0,0.7],[0,0.9],[0.1,1],[0.2,1],[0.3,1],[0.4,1],[0.5,1],[0.6,1],[0.7,1],[0.8,1],[0.9,1],[1,0.1],[1,0.3],[1,0.5],[1,0.7],[1,0.9]];fontStyle=0;resizeWidth=1;" parent="1" vertex="1">
          <mxGeometry x="820" y="770" width="240" height="30" as="geometry" />
        </mxCell>
        <mxCell id="AhWumF3XQHIKjwlk1vKg-69" value="" style="endArrow=block;html=1;fontColor=#000099;endFill=0;endSize=8;arcSize=0;orthogonal=1;noEdgeStyle=1;strokeColor=#000000;curved=1;fontStyle=0;startArrow=none;startFill=0;" parent="1" source="AhWumF3XQHIKjwlk1vKg-68" target="AhWumF3XQHIKjwlk1vKg-14" edge="1">
          <mxGeometry width="50" height="50" relative="1" as="geometry">
            <mxPoint x="-400" y="625.5" as="sourcePoint" />
            <mxPoint x="-410" y="585.5" as="targetPoint" />
          </mxGeometry>
        </mxCell>
        <mxCell id="AhWumF3XQHIKjwlk1vKg-70" value="cd:DiffusionWelding" style="rounded=0;whiteSpace=wrap;html=1;snapToPoint=1;points=[[0.1,0],[0.2,0],[0.3,0],[0.4,0],[0.5,0],[0.6,0],[0.7,0],[0.8,0],[0.9,0],[0,0.1],[0,0.3],[0,0.5],[0,0.7],[0,0.9],[0.1,1],[0.2,1],[0.3,1],[0.4,1],[0.5,1],[0.6,1],[0.7,1],[0.8,1],[0.9,1],[1,0.1],[1,0.3],[1,0.5],[1,0.7],[1,0.9]];fontStyle=0;resizeWidth=1;" parent="1" vertex="1">
          <mxGeometry x="1090" y="770" width="240" height="30" as="geometry" />
        </mxCell>
        <mxCell id="AhWumF3XQHIKjwlk1vKg-71" value="" style="endArrow=block;html=1;fontColor=#000099;endFill=0;arcSize=0;orthogonal=1;noEdgeStyle=1;curved=1;fontStyle=0;startArrow=none;startFill=0;" parent="1" source="AhWumF3XQHIKjwlk1vKg-70" target="AhWumF3XQHIKjwlk1vKg-68" edge="1">
          <mxGeometry width="50" height="50" relative="1" as="geometry">
            <mxPoint x="-250" y="675.5" as="sourcePoint" />
            <mxPoint x="-430" y="675.5" as="targetPoint" />
          </mxGeometry>
        </mxCell>
        <mxCell id="AhWumF3XQHIKjwlk1vKg-72" value="&lt;div&gt;cd:EnergyDispersiveXRayMicroAnalysis&lt;/div&gt;" style="rounded=0;whiteSpace=wrap;html=1;snapToPoint=1;points=[[0.1,0],[0.2,0],[0.3,0],[0.4,0],[0.5,0],[0.6,0],[0.7,0],[0.8,0],[0.9,0],[0,0.1],[0,0.3],[0,0.5],[0,0.7],[0,0.9],[0.1,1],[0.2,1],[0.3,1],[0.4,1],[0.5,1],[0.6,1],[0.7,1],[0.8,1],[0.9,1],[1,0.1],[1,0.3],[1,0.5],[1,0.7],[1,0.9]];fontStyle=0;resizeWidth=1;" parent="1" vertex="1">
          <mxGeometry x="550" y="70" width="240" height="30" as="geometry" />
        </mxCell>
        <mxCell id="AhWumF3XQHIKjwlk1vKg-73" value="" style="endArrow=block;html=1;fontColor=#000099;endFill=0;endSize=8;arcSize=0;noEdgeStyle=1;orthogonal=1;strokeColor=#000000;curved=1;fontStyle=0;startArrow=none;startFill=0;" parent="1" source="AhWumF3XQHIKjwlk1vKg-72" target="AhWumF3XQHIKjwlk1vKg-47" edge="1">
          <mxGeometry width="50" height="50" relative="1" as="geometry">
            <mxPoint x="-442.57142857142844" y="550.5952380952381" as="sourcePoint" />
            <mxPoint x="-342.5714285714289" y="364.8809523809523" as="targetPoint" />
          </mxGeometry>
        </mxCell>
        <mxCell id="AhWumF3XQHIKjwlk1vKg-74" value="&lt;div&gt;cd:Microsection&lt;/div&gt;" style="rounded=0;whiteSpace=wrap;html=1;snapToPoint=1;points=[[0.1,0],[0.2,0],[0.3,0],[0.4,0],[0.5,0],[0.6,0],[0.7,0],[0.8,0],[0.9,0],[0,0.1],[0,0.3],[0,0.5],[0,0.7],[0,0.9],[0.1,1],[0.2,1],[0.3,1],[0.4,1],[0.5,1],[0.6,1],[0.7,1],[0.8,1],[0.9,1],[1,0.1],[1,0.3],[1,0.5],[1,0.7],[1,0.9]];fontStyle=0;resizeWidth=1;" parent="1" vertex="1">
          <mxGeometry x="550" width="240" height="30" as="geometry" />
        </mxCell>
        <mxCell id="AhWumF3XQHIKjwlk1vKg-75" value="" style="endArrow=block;html=1;fontColor=#000099;endFill=0;endSize=8;arcSize=0;noEdgeStyle=1;orthogonal=1;strokeColor=#000000;curved=1;fontStyle=0;startArrow=none;startFill=0;" parent="1" source="AhWumF3XQHIKjwlk1vKg-74" target="AhWumF3XQHIKjwlk1vKg-47" edge="1">
          <mxGeometry width="50" height="50" relative="1" as="geometry">
            <mxPoint x="-432.7619047619048" y="611.8333333333333" as="sourcePoint" />
            <mxPoint x="-343.2380952380954" y="364.21428571428555" as="targetPoint" />
          </mxGeometry>
        </mxCell>
        <mxCell id="AhWumF3XQHIKjwlk1vKg-76" value="&lt;div&gt;cd:Compressing&lt;/div&gt;" style="rounded=0;whiteSpace=wrap;html=1;snapToPoint=1;points=[[0.1,0],[0.2,0],[0.3,0],[0.4,0],[0.5,0],[0.6,0],[0.7,0],[0.8,0],[0.9,0],[0,0.1],[0,0.3],[0,0.5],[0,0.7],[0,0.9],[0.1,1],[0.2,1],[0.3,1],[0.4,1],[0.5,1],[0.6,1],[0.7,1],[0.8,1],[0.9,1],[1,0.1],[1,0.3],[1,0.5],[1,0.7],[1,0.9]];fontStyle=0;resizeWidth=1;" parent="1" vertex="1">
          <mxGeometry x="550" y="560" width="240" height="30" as="geometry" />
        </mxCell>
        <mxCell id="AhWumF3XQHIKjwlk1vKg-77" value="" style="endArrow=block;html=1;fontColor=#000099;endFill=0;endSize=8;arcSize=0;noEdgeStyle=1;orthogonal=1;strokeColor=#000000;curved=1;fontStyle=0;startArrow=none;startFill=0;" parent="1" source="AhWumF3XQHIKjwlk1vKg-76" target="AhWumF3XQHIKjwlk1vKg-15" edge="1">
          <mxGeometry width="50" height="50" relative="1" as="geometry">
            <mxPoint x="-432.57142857142844" y="614.5952380952381" as="sourcePoint" />
            <mxPoint x="-343" y="418.5" as="targetPoint" />
          </mxGeometry>
        </mxCell>
        <mxCell id="WS4uRJv9I919AFa0ZckU-1" value="cd:Activity" style="rounded=0;whiteSpace=wrap;html=1;snapToPoint=1;points=[[0.1,0],[0.2,0],[0.3,0],[0.4,0],[0.5,0],[0.6,0],[0.7,0],[0.8,0],[0.9,0],[0,0.1],[0,0.3],[0,0.5],[0,0.7],[0,0.9],[0.1,1],[0.2,1],[0.3,1],[0.4,1],[0.5,1],[0.6,1],[0.7,1],[0.8,1],[0.9,1],[1,0.1],[1,0.3],[1,0.5],[1,0.7],[1,0.9]];fontStyle=0;resizeWidth=1;treeFolding=0;" parent="1" vertex="1">
          <mxGeometry x="280" y="540" width="240" height="30" as="geometry" />
        </mxCell>
        <mxCell id="WS4uRJv9I919AFa0ZckU-2" value="&lt;div&gt;&lt;b&gt;cd:&lt;/b&gt;&amp;nbsp;https://kupferdigital.gitlab.io/ontologies/copper#&lt;br&gt;&lt;/div&gt;&lt;b&gt;p-plan&lt;/b&gt;&lt;b&gt;:&lt;/b&gt;&lt;span&gt;&amp;nbsp;&lt;/span&gt;http://purl.org/net/p-plan#&lt;br&gt;&lt;div&gt;&lt;b&gt;prov: &lt;/b&gt;http://www.w3.org/ns/prov#&lt;/div&gt;" style="shape=note;whiteSpace=wrap;html=1;backgroundOutline=1;darkOpacity=0.05;align=left;spacingLeft=10;" parent="1" vertex="1">
          <mxGeometry width="360" height="80" as="geometry" />
        </mxCell>
      </root>
    </mxGraphModel>
  </diagram>
  <diagram id="HVvssGSy6oBCbtBmZwo_" name="To-Do">
    <mxGraphModel dx="275" dy="-571" grid="1" gridSize="10" guides="1" tooltips="1" connect="1" arrows="1" fold="1" page="1" pageScale="1" pageWidth="827" pageHeight="1169" math="0" shadow="0">
      <root>
        <mxCell id="71ZVxrTPYSRWXv7aCSN4-0" />
        <mxCell id="71ZVxrTPYSRWXv7aCSN4-1" parent="71ZVxrTPYSRWXv7aCSN4-0" />
        <mxCell id="MYhCEUfX1oNpbuY2qKQW-58" value="cd:TestPieceProcessing" style="rounded=0;whiteSpace=wrap;html=1;snapToPoint=1;points=[[0.1,0],[0.2,0],[0.3,0],[0.4,0],[0.5,0],[0.6,0],[0.7,0],[0.8,0],[0.9,0],[0,0.1],[0,0.3],[0,0.5],[0,0.7],[0,0.9],[0.1,1],[0.2,1],[0.3,1],[0.4,1],[0.5,1],[0.6,1],[0.7,1],[0.8,1],[0.9,1],[1,0.1],[1,0.3],[1,0.5],[1,0.7],[1,0.9]];align=center;fontColor=#EA6B66;resizeWidth=1;" parent="71ZVxrTPYSRWXv7aCSN4-1" vertex="1">
          <mxGeometry x="840" y="1200" width="240" height="30" as="geometry" />
        </mxCell>
        <mxCell id="MYhCEUfX1oNpbuY2qKQW-59" value="cd:SandCasting" style="rounded=0;whiteSpace=wrap;html=1;align=center;spacingLeft=5;resizeWidth=1;fillColor=#f8cecc;strokeColor=#b85450;" parent="71ZVxrTPYSRWXv7aCSN4-1" vertex="1">
          <mxGeometry x="840" y="1251" width="240" height="30" as="geometry" />
        </mxCell>
        <mxCell id="MYhCEUfX1oNpbuY2qKQW-60" value="cd:CentrifugalCasting" style="rounded=0;whiteSpace=wrap;html=1;align=center;spacingLeft=5;fontColor=#EA6B66;resizeWidth=1;" parent="71ZVxrTPYSRWXv7aCSN4-1" vertex="1">
          <mxGeometry x="840" y="1302" width="240" height="30" as="geometry" />
        </mxCell>
        <mxCell id="MYhCEUfX1oNpbuY2qKQW-61" value="cd:ContinuousCasting" style="rounded=0;whiteSpace=wrap;html=1;align=center;spacingLeft=5;fontColor=#EA6B66;resizeWidth=1;" parent="71ZVxrTPYSRWXv7aCSN4-1" vertex="1">
          <mxGeometry x="840" y="1352" width="240" height="30" as="geometry" />
        </mxCell>
        <mxCell id="MYhCEUfX1oNpbuY2qKQW-62" value="cd:PermanentMoldCasting" style="rounded=0;whiteSpace=wrap;html=1;align=center;spacingLeft=5;fontColor=#EA6B66;resizeWidth=1;" parent="71ZVxrTPYSRWXv7aCSN4-1" vertex="1">
          <mxGeometry x="840" y="1454" width="240" height="30" as="geometry" />
        </mxCell>
        <mxCell id="MYhCEUfX1oNpbuY2qKQW-63" value="cd:PrimaryShapingFromPlasticState" style="rounded=0;whiteSpace=wrap;html=1;snapToPoint=1;points=[[0.1,0],[0.2,0],[0.3,0],[0.4,0],[0.5,0],[0.6,0],[0.7,0],[0.8,0],[0.9,0],[0,0.1],[0,0.3],[0,0.5],[0,0.7],[0,0.9],[0.1,1],[0.2,1],[0.3,1],[0.4,1],[0.5,1],[0.6,1],[0.7,1],[0.8,1],[0.9,1],[1,0.1],[1,0.3],[1,0.5],[1,0.7],[1,0.9]];align=center;resizeWidth=1;fillColor=#f8cecc;strokeColor=#b85450;" parent="71ZVxrTPYSRWXv7aCSN4-1" vertex="1">
          <mxGeometry x="840" y="1403" width="240" height="30" as="geometry" />
        </mxCell>
        <mxCell id="MYhCEUfX1oNpbuY2qKQW-64" value="cd:PrimaryShapingFromDoughyState" style="rounded=0;whiteSpace=wrap;html=1;snapToPoint=1;points=[[0.1,0],[0.2,0],[0.3,0],[0.4,0],[0.5,0],[0.6,0],[0.7,0],[0.8,0],[0.9,0],[0,0.1],[0,0.3],[0,0.5],[0,0.7],[0,0.9],[0.1,1],[0.2,1],[0.3,1],[0.4,1],[0.5,1],[0.6,1],[0.7,1],[0.8,1],[0.9,1],[1,0.1],[1,0.3],[1,0.5],[1,0.7],[1,0.9]];align=center;resizeWidth=1;fillColor=#f8cecc;strokeColor=#b85450;" parent="71ZVxrTPYSRWXv7aCSN4-1" vertex="1">
          <mxGeometry x="840" y="1505" width="240" height="30" as="geometry" />
        </mxCell>
        <mxCell id="MYhCEUfX1oNpbuY2qKQW-65" value="cd:PrimaryShapingFromGrainyOrPowderyState" style="rounded=0;whiteSpace=wrap;html=1;snapToPoint=1;points=[[0.1,0],[0.2,0],[0.3,0],[0.4,0],[0.5,0],[0.6,0],[0.7,0],[0.8,0],[0.9,0],[0,0.1],[0,0.3],[0,0.5],[0,0.7],[0,0.9],[0.1,1],[0.2,1],[0.3,1],[0.4,1],[0.5,1],[0.6,1],[0.7,1],[0.8,1],[0.9,1],[1,0.1],[1,0.3],[1,0.5],[1,0.7],[1,0.9]];align=center;resizeWidth=1;fillColor=#f8cecc;strokeColor=#b85450;" parent="71ZVxrTPYSRWXv7aCSN4-1" vertex="1">
          <mxGeometry x="840.0000000000002" y="1556" width="240" height="30" as="geometry" />
        </mxCell>
        <mxCell id="MYhCEUfX1oNpbuY2qKQW-66" value="cd:PrimaryShapingFromChipOrFiberState" style="rounded=0;whiteSpace=wrap;html=1;snapToPoint=1;points=[[0.1,0],[0.2,0],[0.3,0],[0.4,0],[0.5,0],[0.6,0],[0.7,0],[0.8,0],[0.9,0],[0,0.1],[0,0.3],[0,0.5],[0,0.7],[0,0.9],[0.1,1],[0.2,1],[0.3,1],[0.4,1],[0.5,1],[0.6,1],[0.7,1],[0.8,1],[0.9,1],[1,0.1],[1,0.3],[1,0.5],[1,0.7],[1,0.9]];align=center;resizeWidth=1;fillColor=#f8cecc;strokeColor=#b85450;" parent="71ZVxrTPYSRWXv7aCSN4-1" vertex="1">
          <mxGeometry x="840" y="1606" width="240" height="30" as="geometry" />
        </mxCell>
        <mxCell id="MYhCEUfX1oNpbuY2qKQW-67" value="cd:PrimaryShapingFromGasOrVapourState" style="rounded=0;whiteSpace=wrap;html=1;snapToPoint=1;points=[[0.1,0],[0.2,0],[0.3,0],[0.4,0],[0.5,0],[0.6,0],[0.7,0],[0.8,0],[0.9,0],[0,0.1],[0,0.3],[0,0.5],[0,0.7],[0,0.9],[0.1,1],[0.2,1],[0.3,1],[0.4,1],[0.5,1],[0.6,1],[0.7,1],[0.8,1],[0.9,1],[1,0.1],[1,0.3],[1,0.5],[1,0.7],[1,0.9]];align=center;fontColor=#EA6B66;resizeWidth=1;" parent="71ZVxrTPYSRWXv7aCSN4-1" vertex="1">
          <mxGeometry x="840" y="1657" width="240" height="30" as="geometry" />
        </mxCell>
        <mxCell id="MYhCEUfX1oNpbuY2qKQW-68" value="cd:PrimaryShapingFromIonisedState" style="rounded=0;whiteSpace=wrap;html=1;snapToPoint=1;points=[[0.1,0],[0.2,0],[0.3,0],[0.4,0],[0.5,0],[0.6,0],[0.7,0],[0.8,0],[0.9,0],[0,0.1],[0,0.3],[0,0.5],[0,0.7],[0,0.9],[0.1,1],[0.2,1],[0.3,1],[0.4,1],[0.5,1],[0.6,1],[0.7,1],[0.8,1],[0.9,1],[1,0.1],[1,0.3],[1,0.5],[1,0.7],[1,0.9]];align=center;fontColor=#EA6B66;resizeWidth=1;" parent="71ZVxrTPYSRWXv7aCSN4-1" vertex="1">
          <mxGeometry x="840" y="1708" width="240" height="30" as="geometry" />
        </mxCell>
        <mxCell id="MYhCEUfX1oNpbuY2qKQW-69" value="cd:ProcessPart" style="rounded=0;whiteSpace=wrap;html=1;snapToPoint=1;points=[[0.1,0],[0.2,0],[0.3,0],[0.4,0],[0.5,0],[0.6,0],[0.7,0],[0.8,0],[0.9,0],[0,0.1],[0,0.3],[0,0.5],[0,0.7],[0,0.9],[0.1,1],[0.2,1],[0.3,1],[0.4,1],[0.5,1],[0.6,1],[0.7,1],[0.8,1],[0.9,1],[1,0.1],[1,0.3],[1,0.5],[1,0.7],[1,0.9]];fontColor=#EA6B66;resizeWidth=1;" parent="71ZVxrTPYSRWXv7aCSN4-1" vertex="1">
          <mxGeometry x="1800" y="1380" width="240" height="30" as="geometry" />
        </mxCell>
        <mxCell id="MYhCEUfX1oNpbuY2qKQW-70" value="" style="endArrow=block;html=1;fontColor=#EA6B66;endFill=0;endSize=8;arcSize=0;noEdgeStyle=1;orthogonal=1;curved=1;startArrow=none;startFill=0;" parent="71ZVxrTPYSRWXv7aCSN4-1" source="MYhCEUfX1oNpbuY2qKQW-71" target="MYhCEUfX1oNpbuY2qKQW-69" edge="1">
          <mxGeometry width="50" height="50" relative="1" as="geometry">
            <mxPoint x="2266.79" y="2112" as="sourcePoint" />
            <mxPoint x="2241.79" y="2062" as="targetPoint" />
            <Array as="points">
              <mxPoint x="1712" y="1215" />
              <mxPoint x="1788" y="1382.142857142857" />
            </Array>
          </mxGeometry>
        </mxCell>
        <mxCell id="MYhCEUfX1oNpbuY2qKQW-71" value="cd:Cooling" style="rounded=0;whiteSpace=wrap;html=1;snapToPoint=1;points=[[0.1,0],[0.2,0],[0.3,0],[0.4,0],[0.5,0],[0.6,0],[0.7,0],[0.8,0],[0.9,0],[0,0.1],[0,0.3],[0,0.5],[0,0.7],[0,0.9],[0.1,1],[0.2,1],[0.3,1],[0.4,1],[0.5,1],[0.6,1],[0.7,1],[0.8,1],[0.9,1],[1,0.1],[1,0.3],[1,0.5],[1,0.7],[1,0.9]];fontColor=#EA6B66;resizeWidth=1;" parent="71ZVxrTPYSRWXv7aCSN4-1" vertex="1">
          <mxGeometry x="1460" y="1200" width="240" height="30" as="geometry" />
        </mxCell>
        <mxCell id="MYhCEUfX1oNpbuY2qKQW-72" value="" style="endArrow=block;html=1;fontColor=#EA6B66;endFill=0;endSize=8;arcSize=0;noEdgeStyle=1;orthogonal=1;curved=1;startArrow=none;startFill=0;" parent="71ZVxrTPYSRWXv7aCSN4-1" source="MYhCEUfX1oNpbuY2qKQW-73" target="MYhCEUfX1oNpbuY2qKQW-69" edge="1">
          <mxGeometry width="50" height="50" relative="1" as="geometry">
            <mxPoint x="2096.79" y="2112" as="sourcePoint" />
            <mxPoint x="2117.79" y="2022" as="targetPoint" />
            <Array as="points">
              <mxPoint x="1712" y="1275" />
              <mxPoint x="1786" y="1386.4285714285713" />
            </Array>
          </mxGeometry>
        </mxCell>
        <mxCell id="MYhCEUfX1oNpbuY2qKQW-73" value="cd:Heating" style="rounded=0;whiteSpace=wrap;html=1;snapToPoint=1;points=[[0.1,0],[0.2,0],[0.3,0],[0.4,0],[0.5,0],[0.6,0],[0.7,0],[0.8,0],[0.9,0],[0,0.1],[0,0.3],[0,0.5],[0,0.7],[0,0.9],[0.1,1],[0.2,1],[0.3,1],[0.4,1],[0.5,1],[0.6,1],[0.7,1],[0.8,1],[0.9,1],[1,0.1],[1,0.3],[1,0.5],[1,0.7],[1,0.9]];fontColor=#EA6B66;resizeWidth=1;" parent="71ZVxrTPYSRWXv7aCSN4-1" vertex="1">
          <mxGeometry x="1460" y="1260" width="240" height="30" as="geometry" />
        </mxCell>
        <mxCell id="MYhCEUfX1oNpbuY2qKQW-74" value="" style="endArrow=block;html=1;fontColor=#EA6B66;endFill=0;endSize=8;arcSize=0;noEdgeStyle=1;orthogonal=1;curved=1;startArrow=none;startFill=0;" parent="71ZVxrTPYSRWXv7aCSN4-1" source="MYhCEUfX1oNpbuY2qKQW-75" target="MYhCEUfX1oNpbuY2qKQW-69" edge="1">
          <mxGeometry width="50" height="50" relative="1" as="geometry">
            <mxPoint x="1394.29" y="1010" as="sourcePoint" />
            <mxPoint x="2238.79" y="2092" as="targetPoint" />
            <Array as="points">
              <mxPoint x="1712" y="1335" />
              <mxPoint x="1784" y="1390.7142857142858" />
            </Array>
          </mxGeometry>
        </mxCell>
        <mxCell id="MYhCEUfX1oNpbuY2qKQW-75" value="cd:ConstantTemperaturePeriod" style="rounded=0;whiteSpace=wrap;html=1;snapToPoint=1;points=[[0.1,0],[0.2,0],[0.3,0],[0.4,0],[0.5,0],[0.6,0],[0.7,0],[0.8,0],[0.9,0],[0,0.1],[0,0.3],[0,0.5],[0,0.7],[0,0.9],[0.1,1],[0.2,1],[0.3,1],[0.4,1],[0.5,1],[0.6,1],[0.7,1],[0.8,1],[0.9,1],[1,0.1],[1,0.3],[1,0.5],[1,0.7],[1,0.9]];fontColor=#EA6B66;resizeWidth=1;" parent="71ZVxrTPYSRWXv7aCSN4-1" vertex="1">
          <mxGeometry x="1460" y="1320" width="240" height="30" as="geometry" />
        </mxCell>
        <mxCell id="MYhCEUfX1oNpbuY2qKQW-76" value="" style="endArrow=block;html=1;fontColor=#EA6B66;endFill=0;endSize=8;arcSize=0;noEdgeStyle=1;orthogonal=1;curved=1;startArrow=none;startFill=0;" parent="71ZVxrTPYSRWXv7aCSN4-1" source="MYhCEUfX1oNpbuY2qKQW-77" target="MYhCEUfX1oNpbuY2qKQW-71" edge="1">
          <mxGeometry width="50" height="50" relative="1" as="geometry">
            <mxPoint x="2446.79" y="2112" as="sourcePoint" />
            <mxPoint x="2467.79" y="2022" as="targetPoint" />
            <Array as="points">
              <mxPoint x="1372" y="1215" />
              <mxPoint x="1448" y="1215" />
            </Array>
          </mxGeometry>
        </mxCell>
        <mxCell id="MYhCEUfX1oNpbuY2qKQW-77" value="cd:Quenching" style="rounded=0;whiteSpace=wrap;html=1;snapToPoint=1;points=[[0.1,0],[0.2,0],[0.3,0],[0.4,0],[0.5,0],[0.6,0],[0.7,0],[0.8,0],[0.9,0],[0,0.1],[0,0.3],[0,0.5],[0,0.7],[0,0.9],[0.1,1],[0.2,1],[0.3,1],[0.4,1],[0.5,1],[0.6,1],[0.7,1],[0.8,1],[0.9,1],[1,0.1],[1,0.3],[1,0.5],[1,0.7],[1,0.9]];fontColor=#EA6B66;resizeWidth=1;" parent="71ZVxrTPYSRWXv7aCSN4-1" vertex="1">
          <mxGeometry x="1120" y="1200" width="240" height="30" as="geometry" />
        </mxCell>
        <mxCell id="MYhCEUfX1oNpbuY2qKQW-78" value="" style="endArrow=block;html=1;fontColor=#EA6B66;endFill=0;endSize=8;arcSize=0;noEdgeStyle=1;orthogonal=1;curved=1;startArrow=none;startFill=0;" parent="71ZVxrTPYSRWXv7aCSN4-1" source="MYhCEUfX1oNpbuY2qKQW-79" target="MYhCEUfX1oNpbuY2qKQW-69" edge="1">
          <mxGeometry width="50" height="50" relative="1" as="geometry">
            <mxPoint x="2136.79" y="2243" as="sourcePoint" />
            <mxPoint x="2228.79" y="2141" as="targetPoint" />
            <Array as="points">
              <mxPoint x="1712" y="1395" />
              <mxPoint x="1782" y="1395" />
            </Array>
          </mxGeometry>
        </mxCell>
        <mxCell id="MYhCEUfX1oNpbuY2qKQW-79" value="cd:EstablishInertAtmosphere" style="rounded=0;whiteSpace=wrap;html=1;snapToPoint=1;points=[[0.1,0],[0.2,0],[0.3,0],[0.4,0],[0.5,0],[0.6,0],[0.7,0],[0.8,0],[0.9,0],[0,0.1],[0,0.3],[0,0.5],[0,0.7],[0,0.9],[0.1,1],[0.2,1],[0.3,1],[0.4,1],[0.5,1],[0.6,1],[0.7,1],[0.8,1],[0.9,1],[1,0.1],[1,0.3],[1,0.5],[1,0.7],[1,0.9]];fontColor=#EA6B66;resizeWidth=1;" parent="71ZVxrTPYSRWXv7aCSN4-1" vertex="1">
          <mxGeometry x="1460" y="1380" width="240" height="30" as="geometry" />
        </mxCell>
        <mxCell id="MYhCEUfX1oNpbuY2qKQW-80" value="" style="endArrow=block;html=1;fontColor=#EA6B66;endFill=0;endSize=8;arcSize=0;noEdgeStyle=1;orthogonal=1;curved=1;startArrow=none;startFill=0;" parent="71ZVxrTPYSRWXv7aCSN4-1" source="MYhCEUfX1oNpbuY2qKQW-81" target="MYhCEUfX1oNpbuY2qKQW-69" edge="1">
          <mxGeometry width="50" height="50" relative="1" as="geometry">
            <mxPoint x="2456.79" y="2112" as="sourcePoint" />
            <mxPoint x="2548.79" y="2010" as="targetPoint" />
            <Array as="points">
              <mxPoint x="1712" y="1455" />
              <mxPoint x="1784" y="1399.2857142857142" />
            </Array>
          </mxGeometry>
        </mxCell>
        <mxCell id="MYhCEUfX1oNpbuY2qKQW-81" value="cd:Measuring" style="rounded=0;whiteSpace=wrap;html=1;snapToPoint=1;points=[[0.1,0],[0.2,0],[0.3,0],[0.4,0],[0.5,0],[0.6,0],[0.7,0],[0.8,0],[0.9,0],[0,0.1],[0,0.3],[0,0.5],[0,0.7],[0,0.9],[0.1,1],[0.2,1],[0.3,1],[0.4,1],[0.5,1],[0.6,1],[0.7,1],[0.8,1],[0.9,1],[1,0.1],[1,0.3],[1,0.5],[1,0.7],[1,0.9]];fontColor=#EA6B66;resizeWidth=1;" parent="71ZVxrTPYSRWXv7aCSN4-1" vertex="1">
          <mxGeometry x="1460" y="1440" width="240" height="30" as="geometry" />
        </mxCell>
        <mxCell id="MYhCEUfX1oNpbuY2qKQW-82" value="" style="endArrow=block;html=1;fontColor=#EA6B66;endFill=0;endSize=8;arcSize=0;noEdgeStyle=1;orthogonal=1;curved=1;startArrow=none;startFill=0;" parent="71ZVxrTPYSRWXv7aCSN4-1" source="MYhCEUfX1oNpbuY2qKQW-83" target="MYhCEUfX1oNpbuY2qKQW-69" edge="1">
          <mxGeometry width="50" height="50" relative="1" as="geometry">
            <mxPoint x="2106.79" y="2122" as="sourcePoint" />
            <mxPoint x="2198.79" y="2020" as="targetPoint" />
            <Array as="points">
              <mxPoint x="1712" y="1515" />
              <mxPoint x="1786" y="1403.5714285714284" />
            </Array>
          </mxGeometry>
        </mxCell>
        <mxCell id="MYhCEUfX1oNpbuY2qKQW-83" value="cd:Melting" style="rounded=0;whiteSpace=wrap;html=1;snapToPoint=1;points=[[0.1,0],[0.2,0],[0.3,0],[0.4,0],[0.5,0],[0.6,0],[0.7,0],[0.8,0],[0.9,0],[0,0.1],[0,0.3],[0,0.5],[0,0.7],[0,0.9],[0.1,1],[0.2,1],[0.3,1],[0.4,1],[0.5,1],[0.6,1],[0.7,1],[0.8,1],[0.9,1],[1,0.1],[1,0.3],[1,0.5],[1,0.7],[1,0.9]];fontColor=#EA6B66;resizeWidth=1;" parent="71ZVxrTPYSRWXv7aCSN4-1" vertex="1">
          <mxGeometry x="1460" y="1500" width="240" height="30" as="geometry" />
        </mxCell>
        <mxCell id="MYhCEUfX1oNpbuY2qKQW-84" value="" style="endArrow=block;html=1;fontColor=#EA6B66;endFill=0;endSize=8;arcSize=0;noEdgeStyle=1;orthogonal=1;curved=1;startArrow=none;startFill=0;" parent="71ZVxrTPYSRWXv7aCSN4-1" source="MYhCEUfX1oNpbuY2qKQW-85" target="MYhCEUfX1oNpbuY2qKQW-69" edge="1">
          <mxGeometry width="50" height="50" relative="1" as="geometry">
            <mxPoint x="2136.79" y="2178" as="sourcePoint" />
            <mxPoint x="2218.79" y="2066" as="targetPoint" />
            <Array as="points">
              <mxPoint x="1712" y="1575" />
              <mxPoint x="1788" y="1407.8571428571431" />
            </Array>
          </mxGeometry>
        </mxCell>
        <mxCell id="MYhCEUfX1oNpbuY2qKQW-85" value="cd:Casting" style="rounded=0;whiteSpace=wrap;html=1;snapToPoint=1;points=[[0.1,0],[0.2,0],[0.3,0],[0.4,0],[0.5,0],[0.6,0],[0.7,0],[0.8,0],[0.9,0],[0,0.1],[0,0.3],[0,0.5],[0,0.7],[0,0.9],[0.1,1],[0.2,1],[0.3,1],[0.4,1],[0.5,1],[0.6,1],[0.7,1],[0.8,1],[0.9,1],[1,0.1],[1,0.3],[1,0.5],[1,0.7],[1,0.9]];fontColor=#EA6B66;resizeWidth=1;" parent="71ZVxrTPYSRWXv7aCSN4-1" vertex="1">
          <mxGeometry x="1460" y="1560" width="240" height="30" as="geometry" />
        </mxCell>
      </root>
    </mxGraphModel>
  </diagram>
</mxfile>
