<mxfile host="Electron" modified="2022-06-28T19:51:49.829Z" agent="5.0 (X11; Linux x86_64) AppleWebKit/537.36 (KHTML, like Gecko) draw.io/19.0.3 Chrome/102.0.5005.63 Electron/19.0.3 Safari/537.36" etag="S0npu5D2ciCaVZPRYPRx" compressed="false" version="19.0.3" type="device">
  <diagram id="zrZX9-t1AeD-v-06HEN5" name="Materials">
    <mxGraphModel dx="1422" dy="2053" grid="1" gridSize="10" guides="1" tooltips="1" connect="1" arrows="1" fold="1" page="1" pageScale="1" pageWidth="827" pageHeight="1169" math="0" shadow="0">
      <root>
        <mxCell id="0" />
        <mxCell id="1" parent="0" />
        <mxCell id="1KzJAguxVxDVXneS2HQ_-20" value="cd:State" style="rounded=0;whiteSpace=wrap;html=1;snapToPoint=1;points=[[0.1,0],[0.2,0],[0.3,0],[0.4,0],[0.5,0],[0.6,0],[0.7,0],[0.8,0],[0.9,0],[0,0.1],[0,0.3],[0,0.5],[0,0.7],[0,0.9],[0.1,1],[0.2,1],[0.3,1],[0.4,1],[0.5,1],[0.6,1],[0.7,1],[0.8,1],[0.9,1],[1,0.1],[1,0.3],[1,0.5],[1,0.7],[1,0.9]];align=center;" vertex="1" parent="1">
          <mxGeometry x="240" y="240" width="140" height="30" as="geometry" />
        </mxCell>
        <mxCell id="1KzJAguxVxDVXneS2HQ_-21" value="cd:Liquid" style="rounded=0;whiteSpace=wrap;html=1;snapToPoint=1;points=[[0.1,0],[0.2,0],[0.3,0],[0.4,0],[0.5,0],[0.6,0],[0.7,0],[0.8,0],[0.9,0],[0,0.1],[0,0.3],[0,0.5],[0,0.7],[0,0.9],[0.1,1],[0.2,1],[0.3,1],[0.4,1],[0.5,1],[0.6,1],[0.7,1],[0.8,1],[0.9,1],[1,0.1],[1,0.3],[1,0.5],[1,0.7],[1,0.9]];align=center;" vertex="1" parent="1">
          <mxGeometry width="140" height="30" as="geometry" />
        </mxCell>
        <mxCell id="1KzJAguxVxDVXneS2HQ_-22" value="cd:Plastic" style="rounded=0;whiteSpace=wrap;html=1;snapToPoint=1;points=[[0.1,0],[0.2,0],[0.3,0],[0.4,0],[0.5,0],[0.6,0],[0.7,0],[0.8,0],[0.9,0],[0,0.1],[0,0.3],[0,0.5],[0,0.7],[0,0.9],[0.1,1],[0.2,1],[0.3,1],[0.4,1],[0.5,1],[0.6,1],[0.7,1],[0.8,1],[0.9,1],[1,0.1],[1,0.3],[1,0.5],[1,0.7],[1,0.9]];align=center;" vertex="1" parent="1">
          <mxGeometry y="60" width="140" height="30" as="geometry" />
        </mxCell>
        <mxCell id="1KzJAguxVxDVXneS2HQ_-23" value="cd:Dough" style="rounded=0;whiteSpace=wrap;html=1;snapToPoint=1;points=[[0.1,0],[0.2,0],[0.3,0],[0.4,0],[0.5,0],[0.6,0],[0.7,0],[0.8,0],[0.9,0],[0,0.1],[0,0.3],[0,0.5],[0,0.7],[0,0.9],[0.1,1],[0.2,1],[0.3,1],[0.4,1],[0.5,1],[0.6,1],[0.7,1],[0.8,1],[0.9,1],[1,0.1],[1,0.3],[1,0.5],[1,0.7],[1,0.9]];align=center;" vertex="1" parent="1">
          <mxGeometry y="120" width="140" height="30" as="geometry" />
        </mxCell>
        <mxCell id="1KzJAguxVxDVXneS2HQ_-24" value="cd:Powder" style="rounded=0;whiteSpace=wrap;html=1;snapToPoint=1;points=[[0.1,0],[0.2,0],[0.3,0],[0.4,0],[0.5,0],[0.6,0],[0.7,0],[0.8,0],[0.9,0],[0,0.1],[0,0.3],[0,0.5],[0,0.7],[0,0.9],[0.1,1],[0.2,1],[0.3,1],[0.4,1],[0.5,1],[0.6,1],[0.7,1],[0.8,1],[0.9,1],[1,0.1],[1,0.3],[1,0.5],[1,0.7],[1,0.9]];align=center;" vertex="1" parent="1">
          <mxGeometry y="180" width="140" height="30" as="geometry" />
        </mxCell>
        <mxCell id="1KzJAguxVxDVXneS2HQ_-25" value="cd:Grain" style="rounded=0;whiteSpace=wrap;html=1;snapToPoint=1;points=[[0.1,0],[0.2,0],[0.3,0],[0.4,0],[0.5,0],[0.6,0],[0.7,0],[0.8,0],[0.9,0],[0,0.1],[0,0.3],[0,0.5],[0,0.7],[0,0.9],[0.1,1],[0.2,1],[0.3,1],[0.4,1],[0.5,1],[0.6,1],[0.7,1],[0.8,1],[0.9,1],[1,0.1],[1,0.3],[1,0.5],[1,0.7],[1,0.9]];align=center;" vertex="1" parent="1">
          <mxGeometry y="240" width="140" height="30" as="geometry" />
        </mxCell>
        <mxCell id="1KzJAguxVxDVXneS2HQ_-26" value="cd:Chip" style="rounded=0;whiteSpace=wrap;html=1;snapToPoint=1;points=[[0.1,0],[0.2,0],[0.3,0],[0.4,0],[0.5,0],[0.6,0],[0.7,0],[0.8,0],[0.9,0],[0,0.1],[0,0.3],[0,0.5],[0,0.7],[0,0.9],[0.1,1],[0.2,1],[0.3,1],[0.4,1],[0.5,1],[0.6,1],[0.7,1],[0.8,1],[0.9,1],[1,0.1],[1,0.3],[1,0.5],[1,0.7],[1,0.9]];align=center;" vertex="1" parent="1">
          <mxGeometry y="300" width="140" height="30" as="geometry" />
        </mxCell>
        <mxCell id="1KzJAguxVxDVXneS2HQ_-27" value="cd:Fiber" style="rounded=0;whiteSpace=wrap;html=1;snapToPoint=1;points=[[0.1,0],[0.2,0],[0.3,0],[0.4,0],[0.5,0],[0.6,0],[0.7,0],[0.8,0],[0.9,0],[0,0.1],[0,0.3],[0,0.5],[0,0.7],[0,0.9],[0.1,1],[0.2,1],[0.3,1],[0.4,1],[0.5,1],[0.6,1],[0.7,1],[0.8,1],[0.9,1],[1,0.1],[1,0.3],[1,0.5],[1,0.7],[1,0.9]];align=center;" vertex="1" parent="1">
          <mxGeometry y="360" width="140" height="30" as="geometry" />
        </mxCell>
        <mxCell id="1KzJAguxVxDVXneS2HQ_-28" value="cd:Ionised" style="rounded=0;whiteSpace=wrap;html=1;snapToPoint=1;points=[[0.1,0],[0.2,0],[0.3,0],[0.4,0],[0.5,0],[0.6,0],[0.7,0],[0.8,0],[0.9,0],[0,0.1],[0,0.3],[0,0.5],[0,0.7],[0,0.9],[0.1,1],[0.2,1],[0.3,1],[0.4,1],[0.5,1],[0.6,1],[0.7,1],[0.8,1],[0.9,1],[1,0.1],[1,0.3],[1,0.5],[1,0.7],[1,0.9]];align=center;" vertex="1" parent="1">
          <mxGeometry y="420" width="140" height="30" as="geometry" />
        </mxCell>
        <mxCell id="1KzJAguxVxDVXneS2HQ_-29" value="cd:Gas" style="rounded=0;whiteSpace=wrap;html=1;snapToPoint=1;points=[[0.1,0],[0.2,0],[0.3,0],[0.4,0],[0.5,0],[0.6,0],[0.7,0],[0.8,0],[0.9,0],[0,0.1],[0,0.3],[0,0.5],[0,0.7],[0,0.9],[0.1,1],[0.2,1],[0.3,1],[0.4,1],[0.5,1],[0.6,1],[0.7,1],[0.8,1],[0.9,1],[1,0.1],[1,0.3],[1,0.5],[1,0.7],[1,0.9]];align=center;" vertex="1" parent="1">
          <mxGeometry y="480" width="140" height="30" as="geometry" />
        </mxCell>
        <mxCell id="1KzJAguxVxDVXneS2HQ_-30" value="" style="endArrow=block;endFill=0;html=1;rounded=0;strokeColor=#000000;edgeStyle=elbowEdgeStyle;noEdgeStyle=1;orthogonal=1;align=center;" edge="1" parent="1" source="1KzJAguxVxDVXneS2HQ_-29" target="1KzJAguxVxDVXneS2HQ_-20">
          <mxGeometry width="160" relative="1" as="geometry">
            <mxPoint x="470" y="759.63" as="sourcePoint" />
            <mxPoint x="280" y="249.63" as="targetPoint" />
            <Array as="points">
              <mxPoint x="152" y="495" />
              <mxPoint x="228" y="268.3333333333333" />
            </Array>
          </mxGeometry>
        </mxCell>
        <mxCell id="1KzJAguxVxDVXneS2HQ_-31" value="" style="endArrow=block;endFill=0;html=1;rounded=0;strokeColor=#000000;edgeStyle=elbowEdgeStyle;noEdgeStyle=1;orthogonal=1;align=center;" edge="1" parent="1" source="1KzJAguxVxDVXneS2HQ_-27" target="1KzJAguxVxDVXneS2HQ_-20">
          <mxGeometry width="160" relative="1" as="geometry">
            <mxPoint x="800" y="782.63" as="sourcePoint" />
            <mxPoint x="740" y="621.63" as="targetPoint" />
            <Array as="points">
              <mxPoint x="152" y="375" />
              <mxPoint x="224" y="261.6666666666667" />
            </Array>
          </mxGeometry>
        </mxCell>
        <mxCell id="1KzJAguxVxDVXneS2HQ_-32" value="" style="endArrow=block;endFill=0;html=1;rounded=0;strokeColor=#000000;edgeStyle=elbowEdgeStyle;noEdgeStyle=1;orthogonal=1;align=center;" edge="1" parent="1" source="1KzJAguxVxDVXneS2HQ_-22" target="1KzJAguxVxDVXneS2HQ_-20">
          <mxGeometry width="160" relative="1" as="geometry">
            <mxPoint x="990" y="742.63" as="sourcePoint" />
            <mxPoint x="740" y="621.63" as="targetPoint" />
            <Array as="points">
              <mxPoint x="152" y="75" />
              <mxPoint x="226" y="245" />
            </Array>
          </mxGeometry>
        </mxCell>
        <mxCell id="1KzJAguxVxDVXneS2HQ_-33" value="" style="endArrow=block;endFill=0;html=1;rounded=0;strokeColor=#000000;edgeStyle=elbowEdgeStyle;noEdgeStyle=1;orthogonal=1;align=center;" edge="1" parent="1" source="1KzJAguxVxDVXneS2HQ_-23" target="1KzJAguxVxDVXneS2HQ_-20">
          <mxGeometry width="160" relative="1" as="geometry">
            <mxPoint x="1000" y="752.63" as="sourcePoint" />
            <mxPoint x="750" y="631.63" as="targetPoint" />
            <Array as="points">
              <mxPoint x="152" y="135" />
              <mxPoint x="224" y="248.33333333333334" />
            </Array>
          </mxGeometry>
        </mxCell>
        <mxCell id="1KzJAguxVxDVXneS2HQ_-34" value="" style="endArrow=block;endFill=0;html=1;rounded=0;strokeColor=#000000;edgeStyle=elbowEdgeStyle;noEdgeStyle=1;orthogonal=1;align=center;" edge="1" parent="1" source="1KzJAguxVxDVXneS2HQ_-24" target="1KzJAguxVxDVXneS2HQ_-20">
          <mxGeometry width="160" relative="1" as="geometry">
            <mxPoint x="1010" y="762.63" as="sourcePoint" />
            <mxPoint x="760" y="641.63" as="targetPoint" />
            <Array as="points">
              <mxPoint x="152" y="195" />
              <mxPoint x="222" y="251.66666666666669" />
            </Array>
          </mxGeometry>
        </mxCell>
        <mxCell id="1KzJAguxVxDVXneS2HQ_-35" value="" style="endArrow=block;endFill=0;html=1;rounded=0;strokeColor=#000000;edgeStyle=elbowEdgeStyle;noEdgeStyle=1;orthogonal=1;align=center;" edge="1" parent="1" source="1KzJAguxVxDVXneS2HQ_-26" target="1KzJAguxVxDVXneS2HQ_-20">
          <mxGeometry width="160" relative="1" as="geometry">
            <mxPoint x="1020" y="772.63" as="sourcePoint" />
            <mxPoint x="770" y="651.63" as="targetPoint" />
            <Array as="points">
              <mxPoint x="152" y="315" />
              <mxPoint x="222" y="258.33333333333337" />
            </Array>
          </mxGeometry>
        </mxCell>
        <mxCell id="1KzJAguxVxDVXneS2HQ_-36" value="" style="endArrow=block;endFill=0;html=1;rounded=0;strokeColor=#000000;edgeStyle=elbowEdgeStyle;noEdgeStyle=1;orthogonal=1;align=center;" edge="1" parent="1" source="1KzJAguxVxDVXneS2HQ_-25" target="1KzJAguxVxDVXneS2HQ_-20">
          <mxGeometry width="160" relative="1" as="geometry">
            <mxPoint x="1030" y="782.63" as="sourcePoint" />
            <mxPoint x="780" y="661.63" as="targetPoint" />
            <Array as="points">
              <mxPoint x="152" y="255" />
              <mxPoint x="220" y="255.00000000000003" />
            </Array>
          </mxGeometry>
        </mxCell>
        <mxCell id="1KzJAguxVxDVXneS2HQ_-37" value="" style="endArrow=block;endFill=0;html=1;rounded=0;strokeColor=#000000;edgeStyle=elbowEdgeStyle;noEdgeStyle=1;orthogonal=1;align=center;" edge="1" parent="1" source="1KzJAguxVxDVXneS2HQ_-28" target="1KzJAguxVxDVXneS2HQ_-20">
          <mxGeometry width="160" relative="1" as="geometry">
            <mxPoint x="1040" y="792.63" as="sourcePoint" />
            <mxPoint x="790" y="671.63" as="targetPoint" />
            <Array as="points">
              <mxPoint x="152" y="435" />
              <mxPoint x="226" y="265" />
            </Array>
          </mxGeometry>
        </mxCell>
        <mxCell id="1KzJAguxVxDVXneS2HQ_-38" value="" style="endArrow=block;endFill=0;html=1;rounded=0;strokeColor=#000000;edgeStyle=elbowEdgeStyle;noEdgeStyle=1;orthogonal=1;align=center;" edge="1" parent="1" source="1KzJAguxVxDVXneS2HQ_-21" target="1KzJAguxVxDVXneS2HQ_-20">
          <mxGeometry width="160" relative="1" as="geometry">
            <mxPoint x="601" y="959.63" as="sourcePoint" />
            <mxPoint x="600" y="621.63" as="targetPoint" />
            <Array as="points">
              <mxPoint x="152" y="15" />
              <mxPoint x="228" y="241.66666666666666" />
            </Array>
          </mxGeometry>
        </mxCell>
        <mxCell id="1KzJAguxVxDVXneS2HQ_-39" value="cd:Strip" style="rounded=0;whiteSpace=wrap;html=1;align=center;spacingLeft=5;" vertex="1" parent="1">
          <mxGeometry x="440" width="170" height="30" as="geometry" />
        </mxCell>
        <mxCell id="1KzJAguxVxDVXneS2HQ_-40" value="cd:Sheet" style="rounded=0;whiteSpace=wrap;html=1;align=center;spacingLeft=5;" vertex="1" parent="1">
          <mxGeometry x="440" y="60" width="170" height="30" as="geometry" />
        </mxCell>
        <mxCell id="1KzJAguxVxDVXneS2HQ_-41" value="cd:Rod" style="rounded=0;whiteSpace=wrap;html=1;align=center;spacingLeft=5;" vertex="1" parent="1">
          <mxGeometry x="440" y="120" width="170" height="30" as="geometry" />
        </mxCell>
        <mxCell id="1KzJAguxVxDVXneS2HQ_-42" value="cd:Profile" style="rounded=0;whiteSpace=wrap;html=1;align=center;spacingLeft=5;" vertex="1" parent="1">
          <mxGeometry x="440" y="180" width="170" height="30" as="geometry" />
        </mxCell>
        <mxCell id="1KzJAguxVxDVXneS2HQ_-43" value="cd:Forgings" style="rounded=0;whiteSpace=wrap;html=1;align=center;spacingLeft=5;" vertex="1" parent="1">
          <mxGeometry x="440" y="240" width="170" height="30" as="geometry" />
        </mxCell>
        <mxCell id="1KzJAguxVxDVXneS2HQ_-44" value="cd:Wire" style="rounded=0;whiteSpace=wrap;html=1;align=center;spacingLeft=5;" vertex="1" parent="1">
          <mxGeometry x="440" y="300" width="170" height="30" as="geometry" />
        </mxCell>
        <mxCell id="1KzJAguxVxDVXneS2HQ_-45" value="cd:Tube" style="rounded=0;whiteSpace=wrap;html=1;align=center;spacingLeft=5;" vertex="1" parent="1">
          <mxGeometry x="440" y="360" width="170" height="30" as="geometry" />
        </mxCell>
        <mxCell id="1KzJAguxVxDVXneS2HQ_-46" value="" style="endArrow=block;endFill=0;html=1;rounded=0;strokeColor=#000000;edgeStyle=elbowEdgeStyle;noEdgeStyle=1;orthogonal=1;align=center;" edge="1" parent="1" source="1KzJAguxVxDVXneS2HQ_-43" target="1KzJAguxVxDVXneS2HQ_-53">
          <mxGeometry width="160" relative="1" as="geometry">
            <mxPoint x="-157" y="-52.5" as="sourcePoint" />
            <mxPoint x="183" y="102.50000000000045" as="targetPoint" />
            <Array as="points">
              <mxPoint x="622" y="255" />
              <mxPoint x="690" y="255.0000000000001" />
            </Array>
          </mxGeometry>
        </mxCell>
        <mxCell id="1KzJAguxVxDVXneS2HQ_-47" value="" style="endArrow=block;endFill=0;html=1;rounded=0;strokeColor=#000000;edgeStyle=elbowEdgeStyle;noEdgeStyle=1;orthogonal=1;align=center;" edge="1" parent="1" source="1KzJAguxVxDVXneS2HQ_-42" target="1KzJAguxVxDVXneS2HQ_-53">
          <mxGeometry width="160" relative="1" as="geometry">
            <mxPoint x="-97" y="42.5" as="sourcePoint" />
            <mxPoint x="183" y="102.50000000000045" as="targetPoint" />
            <Array as="points">
              <mxPoint x="622" y="195" />
              <mxPoint x="692" y="251.66666666666674" />
            </Array>
          </mxGeometry>
        </mxCell>
        <mxCell id="1KzJAguxVxDVXneS2HQ_-48" value="" style="endArrow=block;endFill=0;html=1;rounded=0;strokeColor=#000000;edgeStyle=elbowEdgeStyle;noEdgeStyle=1;orthogonal=1;align=center;" edge="1" parent="1" source="1KzJAguxVxDVXneS2HQ_-41" target="1KzJAguxVxDVXneS2HQ_-53">
          <mxGeometry width="160" relative="1" as="geometry">
            <mxPoint x="-97" y="92.5" as="sourcePoint" />
            <mxPoint x="183" y="102.50000000000045" as="targetPoint" />
            <Array as="points">
              <mxPoint x="622" y="135" />
              <mxPoint x="694" y="248.33333333333337" />
            </Array>
          </mxGeometry>
        </mxCell>
        <mxCell id="1KzJAguxVxDVXneS2HQ_-49" value="" style="endArrow=block;endFill=0;html=1;rounded=0;strokeColor=#000000;edgeStyle=elbowEdgeStyle;noEdgeStyle=1;orthogonal=1;align=center;" edge="1" parent="1" source="1KzJAguxVxDVXneS2HQ_-40" target="1KzJAguxVxDVXneS2HQ_-53">
          <mxGeometry width="160" relative="1" as="geometry">
            <mxPoint x="-97" y="142.5" as="sourcePoint" />
            <mxPoint x="183" y="102.50000000000045" as="targetPoint" />
            <Array as="points">
              <mxPoint x="622" y="75" />
              <mxPoint x="696" y="245" />
            </Array>
          </mxGeometry>
        </mxCell>
        <mxCell id="1KzJAguxVxDVXneS2HQ_-50" value="" style="endArrow=block;endFill=0;html=1;rounded=0;strokeColor=#000000;edgeStyle=elbowEdgeStyle;noEdgeStyle=1;orthogonal=1;align=center;" edge="1" parent="1" source="1KzJAguxVxDVXneS2HQ_-39" target="1KzJAguxVxDVXneS2HQ_-53">
          <mxGeometry width="160" relative="1" as="geometry">
            <mxPoint x="-87" y="152.5" as="sourcePoint" />
            <mxPoint x="183" y="102.50000000000045" as="targetPoint" />
            <Array as="points">
              <mxPoint x="622" y="15" />
              <mxPoint x="698" y="241.66666666666663" />
            </Array>
          </mxGeometry>
        </mxCell>
        <mxCell id="1KzJAguxVxDVXneS2HQ_-51" value="" style="endArrow=block;endFill=0;html=1;rounded=0;strokeColor=#000000;edgeStyle=elbowEdgeStyle;noEdgeStyle=1;orthogonal=1;align=center;" edge="1" parent="1" source="1KzJAguxVxDVXneS2HQ_-45" target="1KzJAguxVxDVXneS2HQ_-53">
          <mxGeometry width="160" relative="1" as="geometry">
            <mxPoint x="-77" y="162.5" as="sourcePoint" />
            <mxPoint x="183" y="102.50000000000045" as="targetPoint" />
            <Array as="points">
              <mxPoint x="622" y="375" />
              <mxPoint x="694" y="261.66666666666686" />
            </Array>
          </mxGeometry>
        </mxCell>
        <mxCell id="1KzJAguxVxDVXneS2HQ_-52" value="" style="endArrow=block;endFill=0;html=1;rounded=0;strokeColor=#000000;edgeStyle=elbowEdgeStyle;noEdgeStyle=1;orthogonal=1;align=center;" edge="1" parent="1" source="1KzJAguxVxDVXneS2HQ_-44" target="1KzJAguxVxDVXneS2HQ_-53">
          <mxGeometry width="160" relative="1" as="geometry">
            <mxPoint x="-67" y="172.5" as="sourcePoint" />
            <mxPoint x="183" y="102.50000000000045" as="targetPoint" />
            <Array as="points">
              <mxPoint x="622" y="315" />
              <mxPoint x="692" y="258.3333333333335" />
            </Array>
          </mxGeometry>
        </mxCell>
        <mxCell id="1KzJAguxVxDVXneS2HQ_-53" value="cd:ShapedThing" style="rounded=0;whiteSpace=wrap;html=1;align=center;" vertex="1" parent="1">
          <mxGeometry x="710" y="240" width="200" height="30" as="geometry" />
        </mxCell>
        <mxCell id="1KzJAguxVxDVXneS2HQ_-54" value="cd:Ingot" style="rounded=0;whiteSpace=wrap;html=1;align=center;spacingLeft=5;" vertex="1" parent="1">
          <mxGeometry x="440" y="420" width="170" height="30" as="geometry" />
        </mxCell>
        <mxCell id="1KzJAguxVxDVXneS2HQ_-55" value="" style="endArrow=block;endFill=0;html=1;rounded=0;strokeColor=#000000;edgeStyle=elbowEdgeStyle;noEdgeStyle=1;orthogonal=1;align=center;" edge="1" parent="1" source="1KzJAguxVxDVXneS2HQ_-54" target="1KzJAguxVxDVXneS2HQ_-53">
          <mxGeometry width="160" relative="1" as="geometry">
            <mxPoint x="443" y="-165" as="sourcePoint" />
            <mxPoint x="543" y="-332.14285714285734" as="targetPoint" />
            <Array as="points">
              <mxPoint x="622" y="435" />
              <mxPoint x="696" y="265.0000000000002" />
            </Array>
          </mxGeometry>
        </mxCell>
        <mxCell id="1KzJAguxVxDVXneS2HQ_-56" value="cd:Scrap" style="rounded=0;whiteSpace=wrap;html=1;align=center;spacingLeft=5;" vertex="1" parent="1">
          <mxGeometry x="440" y="480" width="170" height="30" as="geometry" />
        </mxCell>
        <mxCell id="1KzJAguxVxDVXneS2HQ_-57" value="" style="endArrow=block;endFill=0;html=1;rounded=0;strokeColor=#000000;edgeStyle=elbowEdgeStyle;noEdgeStyle=1;orthogonal=1;align=center;" edge="1" parent="1" source="1KzJAguxVxDVXneS2HQ_-56" target="1KzJAguxVxDVXneS2HQ_-53">
          <mxGeometry width="160" relative="1" as="geometry">
            <mxPoint x="443" y="-103.11999999999989" as="sourcePoint" />
            <mxPoint x="1150" y="-269.995" as="targetPoint" />
            <Array as="points">
              <mxPoint x="622" y="495" />
              <mxPoint x="698" y="268.3333333333336" />
            </Array>
          </mxGeometry>
        </mxCell>
        <mxCell id="1KzJAguxVxDVXneS2HQ_-58" value="cd:Material" style="rounded=0;whiteSpace=wrap;html=1;snapToPoint=1;points=[[0.1,0],[0.2,0],[0.3,0],[0.4,0],[0.5,0],[0.6,0],[0.7,0],[0.8,0],[0.9,0],[0,0.1],[0,0.3],[0,0.5],[0,0.7],[0,0.9],[0.1,1],[0.2,1],[0.3,1],[0.4,1],[0.5,1],[0.6,1],[0.7,1],[0.8,1],[0.9,1],[1,0.1],[1,0.3],[1,0.5],[1,0.7],[1,0.9]];" vertex="1" parent="1">
          <mxGeometry y="560" width="120" height="30" as="geometry" />
        </mxCell>
        <mxCell id="1KzJAguxVxDVXneS2HQ_-59" value="cd:FractionOfMetal" style="rounded=0;whiteSpace=wrap;html=1;snapToPoint=1;points=[[0.1,0],[0.2,0],[0.3,0],[0.4,0],[0.5,0],[0.6,0],[0.7,0],[0.8,0],[0.9,0],[0,0.1],[0,0.3],[0,0.5],[0,0.7],[0,0.9],[0.1,1],[0.2,1],[0.3,1],[0.4,1],[0.5,1],[0.6,1],[0.7,1],[0.8,1],[0.9,1],[1,0.1],[1,0.3],[1,0.5],[1,0.7],[1,0.9]];" vertex="1" parent="1">
          <mxGeometry x="280" y="640.0000000000003" width="120" height="30" as="geometry" />
        </mxCell>
        <mxCell id="1KzJAguxVxDVXneS2HQ_-60" value="&lt;div&gt;cd:Alloy&lt;/div&gt;" style="rounded=0;whiteSpace=wrap;html=1;snapToPoint=1;points=[[0.1,0],[0.2,0],[0.3,0],[0.4,0],[0.5,0],[0.6,0],[0.7,0],[0.8,0],[0.9,0],[0,0.1],[0,0.3],[0,0.5],[0,0.7],[0,0.9],[0.1,1],[0.2,1],[0.3,1],[0.4,1],[0.5,1],[0.6,1],[0.7,1],[0.8,1],[0.9,1],[1,0.1],[1,0.3],[1,0.5],[1,0.7],[1,0.9]];" vertex="1" parent="1">
          <mxGeometry y="640.0000000000003" width="120" height="30" as="geometry" />
        </mxCell>
        <mxCell id="1KzJAguxVxDVXneS2HQ_-61" value="" style="endArrow=block;html=1;fontColor=#000099;endFill=0;endSize=8;arcSize=0;rounded=0;" edge="1" parent="1" source="1KzJAguxVxDVXneS2HQ_-60" target="1KzJAguxVxDVXneS2HQ_-58">
          <mxGeometry width="50" height="50" relative="1" as="geometry">
            <mxPoint x="59.5" y="380" as="sourcePoint" />
            <mxPoint x="59.5" y="250" as="targetPoint" />
          </mxGeometry>
        </mxCell>
        <mxCell id="1KzJAguxVxDVXneS2HQ_-62" value="" style="endArrow=classic;html=1;endSize=8;arcSize=0;rounded=0;dashed=1;" edge="1" parent="1" source="1KzJAguxVxDVXneS2HQ_-60" target="1KzJAguxVxDVXneS2HQ_-59">
          <mxGeometry width="50" height="50" relative="1" as="geometry">
            <mxPoint x="230" y="280" as="sourcePoint" />
            <mxPoint x="350" y="280" as="targetPoint" />
          </mxGeometry>
        </mxCell>
        <mxCell id="1KzJAguxVxDVXneS2HQ_-63" value="&lt;font&gt;(some) om:hasQuantity&lt;/font&gt;" style="text;html=1;align=center;verticalAlign=middle;resizable=0;points=[];labelBackgroundColor=#ffffff;fontColor=#000000;" vertex="1" connectable="0" parent="1KzJAguxVxDVXneS2HQ_-62">
          <mxGeometry x="-0.1269" relative="1" as="geometry">
            <mxPoint x="7" y="12" as="offset" />
          </mxGeometry>
        </mxCell>
        <mxCell id="1KzJAguxVxDVXneS2HQ_-64" value="cd:FractionOfCopper" style="rounded=0;whiteSpace=wrap;html=1;snapToPoint=1;points=[[0.1,0],[0.2,0],[0.3,0],[0.4,0],[0.5,0],[0.6,0],[0.7,0],[0.8,0],[0.9,0],[0,0.1],[0,0.3],[0,0.5],[0,0.7],[0,0.9],[0.1,1],[0.2,1],[0.3,1],[0.4,1],[0.5,1],[0.6,1],[0.7,1],[0.8,1],[0.9,1],[1,0.1],[1,0.3],[1,0.5],[1,0.7],[1,0.9]];" vertex="1" parent="1">
          <mxGeometry x="280" y="720.0000000000003" width="120" height="30" as="geometry" />
        </mxCell>
        <mxCell id="1KzJAguxVxDVXneS2HQ_-65" value="&lt;div&gt;cd:CopperAlloy&lt;/div&gt;" style="rounded=0;whiteSpace=wrap;html=1;snapToPoint=1;points=[[0.1,0],[0.2,0],[0.3,0],[0.4,0],[0.5,0],[0.6,0],[0.7,0],[0.8,0],[0.9,0],[0,0.1],[0,0.3],[0,0.5],[0,0.7],[0,0.9],[0.1,1],[0.2,1],[0.3,1],[0.4,1],[0.5,1],[0.6,1],[0.7,1],[0.8,1],[0.9,1],[1,0.1],[1,0.3],[1,0.5],[1,0.7],[1,0.9]];" vertex="1" parent="1">
          <mxGeometry y="720.0000000000003" width="120" height="30" as="geometry" />
        </mxCell>
        <mxCell id="1KzJAguxVxDVXneS2HQ_-66" value="" style="endArrow=classic;html=1;endSize=8;arcSize=0;rounded=0;dashed=1;" edge="1" parent="1" source="1KzJAguxVxDVXneS2HQ_-65" target="1KzJAguxVxDVXneS2HQ_-64">
          <mxGeometry width="50" height="50" relative="1" as="geometry">
            <mxPoint x="230" y="360" as="sourcePoint" />
            <mxPoint x="350" y="360" as="targetPoint" />
          </mxGeometry>
        </mxCell>
        <mxCell id="1KzJAguxVxDVXneS2HQ_-67" value="&lt;font&gt;(some) om:hasQuantity&lt;/font&gt;" style="text;html=1;align=center;verticalAlign=middle;resizable=0;points=[];labelBackgroundColor=#ffffff;fontColor=#000000;" vertex="1" connectable="0" parent="1KzJAguxVxDVXneS2HQ_-66">
          <mxGeometry x="-0.1269" relative="1" as="geometry">
            <mxPoint x="7" y="12" as="offset" />
          </mxGeometry>
        </mxCell>
        <mxCell id="1KzJAguxVxDVXneS2HQ_-68" value="" style="endArrow=block;html=1;fontColor=#000099;endFill=0;endSize=8;arcSize=0;rounded=0;" edge="1" parent="1" source="1KzJAguxVxDVXneS2HQ_-65" target="1KzJAguxVxDVXneS2HQ_-60">
          <mxGeometry width="50" height="50" relative="1" as="geometry">
            <mxPoint x="60" y="730" as="sourcePoint" />
            <mxPoint x="70" y="600" as="targetPoint" />
          </mxGeometry>
        </mxCell>
        <mxCell id="1KzJAguxVxDVXneS2HQ_-69" value="cd:Copper" style="rounded=0;whiteSpace=wrap;html=1;snapToPoint=1;points=[[0.1,0],[0.2,0],[0.3,0],[0.4,0],[0.5,0],[0.6,0],[0.7,0],[0.8,0],[0.9,0],[0,0.1],[0,0.3],[0,0.5],[0,0.7],[0,0.9],[0.1,1],[0.2,1],[0.3,1],[0.4,1],[0.5,1],[0.6,1],[0.7,1],[0.8,1],[0.9,1],[1,0.1],[1,0.3],[1,0.5],[1,0.7],[1,0.9]];fontColor=#000000;" vertex="1" parent="1">
          <mxGeometry x="280" y="800.3700000000003" width="120" height="30" as="geometry" />
        </mxCell>
        <mxCell id="1KzJAguxVxDVXneS2HQ_-70" value="" style="endArrow=classic;html=1;endSize=8;arcSize=0;rounded=0;dashed=1;" edge="1" parent="1" source="1KzJAguxVxDVXneS2HQ_-64" target="1KzJAguxVxDVXneS2HQ_-69">
          <mxGeometry width="50" height="50" relative="1" as="geometry">
            <mxPoint x="435" y="750" as="sourcePoint" />
            <mxPoint x="334" y="810.3700000000001" as="targetPoint" />
          </mxGeometry>
        </mxCell>
        <mxCell id="1KzJAguxVxDVXneS2HQ_-71" value="(some) cd:of" style="text;html=1;align=center;verticalAlign=middle;resizable=0;points=[];labelBackgroundColor=#ffffff;fontColor=#FF0A0A;" vertex="1" connectable="0" parent="1KzJAguxVxDVXneS2HQ_-70">
          <mxGeometry x="-0.1269" relative="1" as="geometry">
            <mxPoint x="8" as="offset" />
          </mxGeometry>
        </mxCell>
        <mxCell id="1KzJAguxVxDVXneS2HQ_-72" value="om:Measure" style="rounded=0;whiteSpace=wrap;html=1;snapToPoint=1;points=[[0.1,0],[0.2,0],[0.3,0],[0.4,0],[0.5,0],[0.6,0],[0.7,0],[0.8,0],[0.9,0],[0,0.1],[0,0.3],[0,0.5],[0,0.7],[0,0.9],[0.1,1],[0.2,1],[0.3,1],[0.4,1],[0.5,1],[0.6,1],[0.7,1],[0.8,1],[0.9,1],[1,0.1],[1,0.3],[1,0.5],[1,0.7],[1,0.9]];" vertex="1" parent="1">
          <mxGeometry x="561" y="720.0000000000001" width="200" height="30" as="geometry" />
        </mxCell>
        <mxCell id="1KzJAguxVxDVXneS2HQ_-73" value="" style="endArrow=classic;html=1;endSize=8;arcSize=0;rounded=0;dashed=1;" edge="1" parent="1" source="1KzJAguxVxDVXneS2HQ_-64" target="1KzJAguxVxDVXneS2HQ_-72">
          <mxGeometry width="50" height="50" relative="1" as="geometry">
            <mxPoint x="401" y="734.63" as="sourcePoint" />
            <mxPoint x="447" y="890.0000000000001" as="targetPoint" />
          </mxGeometry>
        </mxCell>
        <mxCell id="1KzJAguxVxDVXneS2HQ_-74" value="(some)&amp;nbsp; om:hasValue" style="text;html=1;align=center;verticalAlign=middle;resizable=0;points=[];labelBackgroundColor=#ffffff;" vertex="1" connectable="0" parent="1KzJAguxVxDVXneS2HQ_-73">
          <mxGeometry x="-0.1269" relative="1" as="geometry">
            <mxPoint x="7" y="15" as="offset" />
          </mxGeometry>
        </mxCell>
        <mxCell id="1KzJAguxVxDVXneS2HQ_-75" value="&lt;div&gt;&lt;b&gt;cd:&lt;/b&gt;&amp;nbsp;https://kupferdigital.gitlab.io/ontologies/copper#&lt;br&gt;&lt;/div&gt;&lt;b&gt;om:&lt;/b&gt; http://www.ontology-of-units-of-measure.org/resource/om-2/" style="shape=note;whiteSpace=wrap;html=1;backgroundOutline=1;darkOpacity=0.05;align=left;spacingLeft=10;" vertex="1" parent="1">
          <mxGeometry y="-80" width="400" height="40" as="geometry" />
        </mxCell>
      </root>
    </mxGraphModel>
  </diagram>
</mxfile>
